Esp1_2/Data/Newfile12.csv

X,CH1,CH2,Start,Increment,
Sequence,Volt,Volt,-1.400000e-03,2.000000e-06,
0,-7.370000e-02,-7.504001e-02,
1,-7.370000e-02,-7.504001e-02,
2,-7.370000e-02,-7.504001e-02,
3,-7.370000e-02,-7.504001e-02,
4,-7.638001e-02,-7.906000e-02,
5,-7.638001e-02,-7.906000e-02,
6,-7.906000e-02,-8.040000e-02,
7,-7.906000e-02,-8.040000e-02,
8,-8.040000e-02,-8.308000e-02,
9,-8.174001e-02,-8.308000e-02,
10,-8.442000e-02,-8.576000e-02,
11,-8.308000e-02,-8.576000e-02,
12,-8.576000e-02,-8.844001e-02,
13,-8.576000e-02,-8.844001e-02,
14,-8.710001e-02,-8.978000e-02,
15,-8.844001e-02,-8.978000e-02,
16,-8.978000e-02,-9.246001e-02,
17,-8.978000e-02,-9.246001e-02,
18,-9.246001e-02,-9.380001e-02,
19,-9.246001e-02,-9.380001e-02,
20,-9.514000e-02,-9.648000e-02,
21,-9.514000e-02,-9.648000e-02,
22,-9.514000e-02,-9.782001e-02,
23,-9.648000e-02,-9.782001e-02,
24,-9.782001e-02,-1.005000e-01,
25,-9.916001e-02,-1.005000e-01,
26,-9.916001e-02,-1.018400e-01,
27,-9.916001e-02,-1.018400e-01,
28,-1.018400e-01,-1.031800e-01,
29,-1.018400e-01,-1.045200e-01,
30,-1.031800e-01,-1.058600e-01,
31,-1.045200e-01,-1.058600e-01,
32,-1.058600e-01,-1.072000e-01,
33,-1.058600e-01,-1.072000e-01,
34,-1.058600e-01,-1.085400e-01,
35,-1.072000e-01,-1.085400e-01,
36,-1.085400e-01,-1.098800e-01,
37,-1.072000e-01,-1.112200e-01,
38,-1.098800e-01,-1.125600e-01,
39,-1.098800e-01,-1.125600e-01,
40,-1.098800e-01,-1.125600e-01,
41,-1.112200e-01,-1.139000e-01,
42,-1.112200e-01,-1.152400e-01,
43,-1.112200e-01,-1.139000e-01,
44,-1.139000e-01,-1.152400e-01,
45,-1.125600e-01,-1.152400e-01,
46,-1.139000e-01,-1.165800e-01,
47,-1.152400e-01,-1.165800e-01,
48,-1.152400e-01,-1.179200e-01,
49,-1.152400e-01,-1.179200e-01,
50,-1.165800e-01,-1.192600e-01,
51,-1.165800e-01,-1.192600e-01,
52,-1.179200e-01,-1.192600e-01,
53,-1.179200e-01,-1.192600e-01,
54,-1.179200e-01,-1.206000e-01,
55,-1.179200e-01,-1.206000e-01,
56,-1.192600e-01,-1.206000e-01,
57,-1.192600e-01,-1.206000e-01,
58,-1.192600e-01,-1.219400e-01,
59,-1.192600e-01,-1.219400e-01,
60,-1.206000e-01,-1.232800e-01,
61,-1.206000e-01,-1.219400e-01,
62,-1.206000e-01,-1.232800e-01,
63,-1.219400e-01,-1.232800e-01,
64,-1.219400e-01,-1.246200e-01,
65,-1.206000e-01,-1.246200e-01,
66,-1.219400e-01,-1.246200e-01,
67,-1.219400e-01,-1.246200e-01,
68,-1.219400e-01,-1.246200e-01,
69,-1.232800e-01,-1.246200e-01,
70,-1.232800e-01,-1.246200e-01,
71,-1.219400e-01,-1.246200e-01,
72,-1.219400e-01,-1.246200e-01,
73,-1.232800e-01,-1.259600e-01,
74,-1.232800e-01,-1.246200e-01,
75,-1.219400e-01,-1.259600e-01,
76,-1.219400e-01,-1.246200e-01,
77,-1.232800e-01,-1.259600e-01,
78,-1.232800e-01,-1.246200e-01,
79,-1.232800e-01,-1.259600e-01,
80,-1.219400e-01,-1.246200e-01,
81,-1.232800e-01,-1.246200e-01,
82,-1.219400e-01,-1.246200e-01,
83,-1.232800e-01,-1.246200e-01,
84,-1.219400e-01,-1.246200e-01,
85,-1.219400e-01,-1.246200e-01,
86,-1.219400e-01,-1.246200e-01,
87,-1.219400e-01,-1.232800e-01,
88,-1.206000e-01,-1.232800e-01,
89,-1.219400e-01,-1.232800e-01,
90,-1.206000e-01,-1.232800e-01,
91,-1.206000e-01,-1.232800e-01,
92,-1.206000e-01,-1.219400e-01,
93,-1.192600e-01,-1.232800e-01,
94,-1.192600e-01,-1.219400e-01,
95,-1.192600e-01,-1.219400e-01,
96,-1.192600e-01,-1.206000e-01,
97,-1.179200e-01,-1.206000e-01,
98,-1.179200e-01,-1.192600e-01,
99,-1.179200e-01,-1.192600e-01,
100,-1.165800e-01,-1.192600e-01,
101,-1.165800e-01,-1.192600e-01,
102,-1.165800e-01,-1.192600e-01,
103,-1.165800e-01,-1.179200e-01,
104,-1.152400e-01,-1.179200e-01,
105,-1.139000e-01,-1.165800e-01,
106,-1.139000e-01,-1.152400e-01,
107,-1.139000e-01,-1.165800e-01,
108,-1.125600e-01,-1.152400e-01,
109,-1.125600e-01,-1.152400e-01,
110,-1.112200e-01,-1.139000e-01,
111,-1.112200e-01,-1.139000e-01,
112,-1.098800e-01,-1.125600e-01,
113,-1.098800e-01,-1.112200e-01,
114,-1.085400e-01,-1.112200e-01,
115,-1.085400e-01,-1.112200e-01,
116,-1.072000e-01,-1.098800e-01,
117,-1.072000e-01,-1.098800e-01,
118,-1.058600e-01,-1.085400e-01,
119,-1.045200e-01,-1.072000e-01,
120,-1.045200e-01,-1.058600e-01,
121,-1.045200e-01,-1.058600e-01,
122,-1.018400e-01,-1.045200e-01,
123,-1.018400e-01,-1.045200e-01,
124,-1.005000e-01,-1.031800e-01,
125,-9.916001e-02,-1.031800e-01,
126,-9.782001e-02,-1.005000e-01,
127,-9.916001e-02,-1.005000e-01,
128,-9.648000e-02,-9.916001e-02,
129,-9.648000e-02,-9.782001e-02,
130,-9.514000e-02,-9.782001e-02,
131,-9.514000e-02,-9.648000e-02,
132,-9.246001e-02,-9.514000e-02,
133,-9.246001e-02,-9.514000e-02,
134,-9.112000e-02,-9.246001e-02,
135,-9.112000e-02,-9.246001e-02,
136,-8.844001e-02,-9.112000e-02,
137,-8.710001e-02,-9.112000e-02,
138,-8.576000e-02,-8.710001e-02,
139,-8.576000e-02,-8.844001e-02,
140,-8.442000e-02,-8.576000e-02,
141,-8.442000e-02,-8.576000e-02,
142,-8.174001e-02,-8.308000e-02,
143,-8.174001e-02,-8.308000e-02,
144,-7.906000e-02,-8.174001e-02,
145,-7.906000e-02,-8.174001e-02,
146,-7.638001e-02,-7.906000e-02,
147,-7.638001e-02,-7.906000e-02,
148,-7.370000e-02,-7.772000e-02,
149,-7.370000e-02,-7.638001e-02,
150,-7.102001e-02,-7.370000e-02,
151,-7.236000e-02,-7.370000e-02,
152,-6.968001e-02,-7.102001e-02,
153,-6.834000e-02,-7.236000e-02,
154,-6.700000e-02,-6.834000e-02,
155,-6.700000e-02,-6.834000e-02,
156,-6.432001e-02,-6.566001e-02,
157,-6.298000e-02,-6.566001e-02,
158,-6.164000e-02,-6.298000e-02,
159,-6.030000e-02,-6.298000e-02,
160,-5.896000e-02,-6.030000e-02,
161,-5.762000e-02,-6.030000e-02,
162,-5.628000e-02,-5.762000e-02,
163,-5.628000e-02,-5.762000e-02,
164,-5.360000e-02,-5.494000e-02,
165,-5.360000e-02,-5.494000e-02,
166,-4.958000e-02,-5.226000e-02,
167,-4.958000e-02,-5.092000e-02,
168,-4.690000e-02,-4.824000e-02,
169,-4.690000e-02,-4.824000e-02,
170,-4.422000e-02,-4.690000e-02,
171,-4.422000e-02,-4.556000e-02,
172,-4.154000e-02,-4.288000e-02,
173,-4.020000e-02,-4.288000e-02,
174,-3.886000e-02,-3.886000e-02,
175,-3.886000e-02,-3.886000e-02,
176,-3.484000e-02,-3.752000e-02,
177,-3.484000e-02,-3.618000e-02,
178,-3.216000e-02,-3.350000e-02,
179,-3.216000e-02,-3.484000e-02,
180,-2.948000e-02,-3.082000e-02,
181,-2.814000e-02,-3.082000e-02,
182,-2.680000e-02,-2.814000e-02,
183,-2.546000e-02,-2.814000e-02,
184,-2.278000e-02,-2.412000e-02,
185,-2.278000e-02,-2.412000e-02,
186,-2.010000e-02,-2.144000e-02,
187,-2.010000e-02,-2.144000e-02,
188,-1.742000e-02,-1.876000e-02,
189,-1.608000e-02,-1.876000e-02,
190,-1.340000e-02,-1.608000e-02,
191,-1.340000e-02,-1.474000e-02,
192,-1.072000e-02,-1.206000e-02,
193,-1.072000e-02,-1.206000e-02,
194,-8.040001e-03,-8.040001e-03,
195,-6.700000e-03,-8.040001e-03,
196,-4.020000e-03,-5.360000e-03,
197,-4.020000e-03,-5.360000e-03,
198,-1.340000e-03,-2.680000e-03,
199,-1.340000e-03,-2.680000e-03,
200,1.340000e-03,0.000000e+00,
201,1.340000e-03,0.000000e+00,
202,5.360000e-03,4.020000e-03,
203,5.360000e-03,4.020000e-03,
204,8.040001e-03,6.700000e-03,
205,8.040001e-03,6.700000e-03,
206,1.206000e-02,9.380001e-03,
207,1.072000e-02,9.380001e-03,
208,1.474000e-02,1.340000e-02,
209,1.474000e-02,1.340000e-02,
210,1.742000e-02,1.742000e-02,
211,1.742000e-02,1.742000e-02,
212,2.144000e-02,2.010000e-02,
213,2.144000e-02,2.010000e-02,
214,2.412000e-02,2.278000e-02,
215,2.412000e-02,2.278000e-02,
216,2.680000e-02,2.546000e-02,
217,2.680000e-02,2.546000e-02,
218,2.948000e-02,2.814000e-02,
219,2.948000e-02,2.948000e-02,
220,3.216000e-02,3.216000e-02,
221,3.350000e-02,3.216000e-02,
222,3.618000e-02,3.484000e-02,
223,3.618000e-02,3.484000e-02,
224,3.886000e-02,3.752000e-02,
225,3.886000e-02,3.752000e-02,
226,4.154000e-02,4.154000e-02,
227,4.154000e-02,4.154000e-02,
228,4.556000e-02,4.422000e-02,
229,4.556000e-02,4.422000e-02,
230,4.824000e-02,4.690000e-02,
231,4.824000e-02,4.690000e-02,
232,5.092000e-02,4.958000e-02,
233,5.092000e-02,4.958000e-02,
234,5.360000e-02,5.360000e-02,
235,5.360000e-02,5.360000e-02,
236,5.628000e-02,5.494000e-02,
237,5.628000e-02,5.494000e-02,
238,5.896000e-02,5.762000e-02,
239,5.896000e-02,5.762000e-02,
240,6.298000e-02,6.164000e-02,
241,6.298000e-02,6.164000e-02,
242,6.432001e-02,6.432001e-02,
243,6.432001e-02,6.432001e-02,
244,6.700000e-02,6.700000e-02,
245,6.700000e-02,6.700000e-02,
246,6.968001e-02,6.834000e-02,
247,7.102001e-02,6.834000e-02,
248,7.236000e-02,7.102001e-02,
249,7.236000e-02,7.236000e-02,
250,7.504001e-02,7.504001e-02,
251,7.504001e-02,7.370000e-02,
252,7.772000e-02,7.638001e-02,
253,7.772000e-02,7.638001e-02,
254,8.040000e-02,7.772000e-02,
255,8.040000e-02,7.772000e-02,
256,8.174001e-02,8.174001e-02,
257,8.308000e-02,8.174001e-02,
258,8.442000e-02,8.442000e-02,
259,8.576000e-02,8.442000e-02,
260,8.710001e-02,8.576000e-02,
261,8.710001e-02,8.710001e-02,
262,8.978000e-02,8.710001e-02,
263,8.978000e-02,8.844001e-02,
264,9.112000e-02,8.978000e-02,
265,9.112000e-02,9.112000e-02,
266,9.380001e-02,9.246001e-02,
267,9.380001e-02,9.246001e-02,
268,9.648000e-02,9.514000e-02,
269,9.648000e-02,9.514000e-02,
270,9.782001e-02,9.648000e-02,
271,9.916001e-02,9.648000e-02,
272,1.005000e-01,9.916001e-02,
273,9.916001e-02,9.916001e-02,
274,1.018400e-01,1.005000e-01,
275,1.031800e-01,1.005000e-01,
276,1.045200e-01,1.031800e-01,
277,1.045200e-01,1.031800e-01,
278,1.058600e-01,1.045200e-01,
279,1.058600e-01,1.045200e-01,
280,1.072000e-01,1.058600e-01,
281,1.072000e-01,1.058600e-01,
282,1.098800e-01,1.072000e-01,
283,1.085400e-01,1.085400e-01,
284,1.098800e-01,1.098800e-01,
285,1.112200e-01,1.098800e-01,
286,1.125600e-01,1.112200e-01,
287,1.125600e-01,1.098800e-01,
288,1.139000e-01,1.125600e-01,
289,1.139000e-01,1.125600e-01,
290,1.152400e-01,1.139000e-01,
291,1.152400e-01,1.139000e-01,
292,1.152400e-01,1.152400e-01,
293,1.165800e-01,1.152400e-01,
294,1.165800e-01,1.152400e-01,
295,1.165800e-01,1.165800e-01,
296,1.179200e-01,1.179200e-01,
297,1.192600e-01,1.165800e-01,
298,1.206000e-01,1.179200e-01,
299,1.192600e-01,1.179200e-01,
300,1.206000e-01,1.192600e-01,
301,1.206000e-01,1.192600e-01,
302,1.219400e-01,1.206000e-01,
303,1.219400e-01,1.206000e-01,
304,1.232800e-01,1.206000e-01,
305,1.232800e-01,1.206000e-01,
306,1.232800e-01,1.219400e-01,
307,1.232800e-01,1.219400e-01,
308,1.246200e-01,1.232800e-01,
309,1.232800e-01,1.232800e-01,
310,1.246200e-01,1.232800e-01,
311,1.246200e-01,1.246200e-01,
312,1.246200e-01,1.246200e-01,
313,1.259600e-01,1.232800e-01,
314,1.259600e-01,1.246200e-01,
315,1.246200e-01,1.246200e-01,
316,1.259600e-01,1.246200e-01,
317,1.259600e-01,1.246200e-01,
318,1.259600e-01,1.246200e-01,
319,1.273000e-01,1.246200e-01,
320,1.259600e-01,1.246200e-01,
321,1.259600e-01,1.259600e-01,
322,1.259600e-01,1.259600e-01,
323,1.259600e-01,1.259600e-01,
324,1.259600e-01,1.259600e-01,
325,1.273000e-01,1.259600e-01,
326,1.259600e-01,1.246200e-01,
327,1.259600e-01,1.246200e-01,
328,1.259600e-01,1.259600e-01,
329,1.273000e-01,1.259600e-01,
330,1.273000e-01,1.259600e-01,
331,1.259600e-01,1.246200e-01,
332,1.259600e-01,1.259600e-01,
333,1.273000e-01,1.259600e-01,
334,1.259600e-01,1.246200e-01,
335,1.259600e-01,1.246200e-01,
336,1.259600e-01,1.246200e-01,
337,1.246200e-01,1.246200e-01,
338,1.259600e-01,1.246200e-01,
339,1.246200e-01,1.246200e-01,
340,1.246200e-01,1.232800e-01,
341,1.246200e-01,1.232800e-01,
342,1.232800e-01,1.219400e-01,
343,1.246200e-01,1.232800e-01,
344,1.232800e-01,1.219400e-01,
345,1.232800e-01,1.219400e-01,
346,1.219400e-01,1.219400e-01,
347,1.219400e-01,1.219400e-01,
348,1.219400e-01,1.206000e-01,
349,1.219400e-01,1.206000e-01,
350,1.206000e-01,1.192600e-01,
351,1.219400e-01,1.206000e-01,
352,1.206000e-01,1.179200e-01,
353,1.206000e-01,1.179200e-01,
354,1.192600e-01,1.179200e-01,
355,1.179200e-01,1.165800e-01,
356,1.179200e-01,1.165800e-01,
357,1.179200e-01,1.165800e-01,
358,1.165800e-01,1.152400e-01,
359,1.165800e-01,1.152400e-01,
360,1.152400e-01,1.139000e-01,
361,1.152400e-01,1.125600e-01,
362,1.139000e-01,1.125600e-01,
363,1.139000e-01,1.125600e-01,
364,1.125600e-01,1.112200e-01,
365,1.125600e-01,1.112200e-01,
366,1.098800e-01,1.098800e-01,
367,1.098800e-01,1.098800e-01,
368,1.098800e-01,1.085400e-01,
369,1.098800e-01,1.085400e-01,
370,1.085400e-01,1.072000e-01,
371,1.072000e-01,1.072000e-01,
372,1.072000e-01,1.045200e-01,
373,1.058600e-01,1.045200e-01,
374,1.045200e-01,1.031800e-01,
375,1.045200e-01,1.031800e-01,
376,1.018400e-01,1.018400e-01,
377,1.031800e-01,1.005000e-01,
378,1.018400e-01,9.916001e-02,
379,1.005000e-01,9.916001e-02,
380,9.916001e-02,9.782001e-02,
381,9.916001e-02,9.648000e-02,
382,9.648000e-02,9.514000e-02,
383,9.648000e-02,9.514000e-02,
384,9.514000e-02,9.246001e-02,
385,9.514000e-02,9.380001e-02,
386,9.112000e-02,9.112000e-02,
387,9.246001e-02,8.978000e-02,
388,8.978000e-02,8.978000e-02,
389,8.978000e-02,8.844001e-02,
390,8.844001e-02,8.576000e-02,
391,8.710001e-02,8.576000e-02,
392,8.576000e-02,8.442000e-02,
393,8.576000e-02,8.442000e-02,
394,8.308000e-02,8.174001e-02,
395,8.308000e-02,8.174001e-02,
396,8.040000e-02,7.906000e-02,
397,8.040000e-02,7.906000e-02,
398,7.772000e-02,7.772000e-02,
399,7.772000e-02,7.772000e-02,
400,7.638001e-02,7.504001e-02,
401,7.638001e-02,7.504001e-02,
402,7.370000e-02,7.236000e-02,
403,7.370000e-02,7.102001e-02,
404,7.102001e-02,6.968001e-02,
405,6.968001e-02,6.968001e-02,
406,6.834000e-02,6.700000e-02,
407,6.834000e-02,6.700000e-02,
408,6.566001e-02,6.432001e-02,
409,6.566001e-02,6.432001e-02,
410,6.298000e-02,6.164000e-02,
411,6.298000e-02,6.164000e-02,
412,6.030000e-02,5.896000e-02,
413,6.030000e-02,5.896000e-02,
414,5.762000e-02,5.628000e-02,
415,5.762000e-02,5.494000e-02,
416,5.360000e-02,5.360000e-02,
417,5.494000e-02,5.360000e-02,
418,5.092000e-02,5.092000e-02,
419,5.092000e-02,4.958000e-02,
420,4.824000e-02,4.824000e-02,
421,4.824000e-02,4.690000e-02,
422,4.556000e-02,4.422000e-02,
423,4.556000e-02,4.422000e-02,
424,4.154000e-02,4.154000e-02,
425,4.154000e-02,4.154000e-02,
426,3.886000e-02,3.886000e-02,
427,4.020000e-02,3.886000e-02,
428,3.618000e-02,3.484000e-02,
429,3.618000e-02,3.484000e-02,
430,3.350000e-02,3.350000e-02,
431,3.350000e-02,3.216000e-02,
432,2.948000e-02,2.948000e-02,
433,3.082000e-02,2.948000e-02,
434,2.814000e-02,2.680000e-02,
435,2.814000e-02,2.680000e-02,
436,2.412000e-02,2.412000e-02,
437,2.412000e-02,2.278000e-02,
438,2.144000e-02,2.144000e-02,
439,2.144000e-02,2.010000e-02,
440,1.876000e-02,1.742000e-02,
441,1.742000e-02,1.742000e-02,
442,1.608000e-02,1.474000e-02,
443,1.608000e-02,1.340000e-02,
444,1.206000e-02,1.072000e-02,
445,1.206000e-02,1.072000e-02,
446,8.040001e-03,8.040001e-03,
447,9.380001e-03,8.040001e-03,
448,6.700000e-03,5.360000e-03,
449,5.360000e-03,4.020000e-03,
450,2.680000e-03,1.340000e-03,
451,2.680000e-03,1.340000e-03,
452,-1.340000e-03,-1.340000e-03,
453,-1.340000e-03,-1.340000e-03,
454,-4.020000e-03,-5.360000e-03,
455,-2.680000e-03,-5.360000e-03,
456,-6.700000e-03,-8.040001e-03,
457,-6.700000e-03,-8.040001e-03,
458,-9.380001e-03,-1.206000e-02,
459,-1.072000e-02,-1.206000e-02,
460,-1.340000e-02,-1.474000e-02,
461,-1.206000e-02,-1.474000e-02,
462,-1.608000e-02,-1.742000e-02,
463,-1.742000e-02,-1.742000e-02,
464,-2.010000e-02,-2.144000e-02,
465,-1.876000e-02,-2.144000e-02,
466,-2.278000e-02,-2.412000e-02,
467,-2.278000e-02,-2.412000e-02,
468,-2.546000e-02,-2.680000e-02,
469,-2.546000e-02,-2.680000e-02,
470,-2.814000e-02,-2.948000e-02,
471,-2.814000e-02,-2.948000e-02,
472,-3.216000e-02,-3.350000e-02,
473,-3.216000e-02,-3.350000e-02,
474,-3.484000e-02,-3.618000e-02,
475,-3.484000e-02,-3.618000e-02,
476,-3.752000e-02,-3.886000e-02,
477,-3.886000e-02,-3.886000e-02,
478,-4.020000e-02,-4.288000e-02,
479,-4.154000e-02,-4.154000e-02,
480,-4.422000e-02,-4.556000e-02,
481,-4.288000e-02,-4.422000e-02,
482,-4.690000e-02,-4.824000e-02,
483,-4.690000e-02,-4.824000e-02,
484,-4.958000e-02,-5.092000e-02,
485,-4.958000e-02,-5.092000e-02,
486,-5.226000e-02,-5.494000e-02,
487,-5.226000e-02,-5.494000e-02,
488,-5.494000e-02,-5.628000e-02,
489,-5.494000e-02,-5.628000e-02,
490,-5.762000e-02,-6.030000e-02,
491,-5.762000e-02,-5.896000e-02,
492,-6.030000e-02,-6.298000e-02,
493,-6.164000e-02,-6.298000e-02,
494,-6.298000e-02,-6.566001e-02,
495,-6.298000e-02,-6.432001e-02,
496,-6.566001e-02,-6.834000e-02,
497,-6.566001e-02,-6.700000e-02,
498,-6.968001e-02,-7.102001e-02,
499,-6.968001e-02,-7.102001e-02,
500,-7.102001e-02,-7.236000e-02,
501,-7.102001e-02,-7.370000e-02,
502,-7.370000e-02,-7.504001e-02,
503,-7.370000e-02,-7.638001e-02,
504,-7.638001e-02,-7.772000e-02,
505,-7.638001e-02,-7.906000e-02,
506,-7.772000e-02,-8.040000e-02,
507,-7.906000e-02,-8.040000e-02,
508,-8.040000e-02,-8.308000e-02,
509,-8.040000e-02,-8.308000e-02,
510,-8.308000e-02,-8.576000e-02,
511,-8.442000e-02,-8.576000e-02,
512,-8.576000e-02,-8.844001e-02,
513,-8.576000e-02,-8.844001e-02,
514,-8.710001e-02,-8.978000e-02,
515,-8.844001e-02,-8.978000e-02,
516,-8.978000e-02,-9.112000e-02,
517,-8.978000e-02,-9.112000e-02,
518,-9.112000e-02,-9.380001e-02,
519,-9.112000e-02,-9.380001e-02,
520,-9.514000e-02,-9.648000e-02,
521,-9.380001e-02,-9.648000e-02,
522,-9.648000e-02,-9.782001e-02,
523,-9.648000e-02,-9.782001e-02,
524,-9.782001e-02,-1.005000e-01,
525,-9.782001e-02,-1.005000e-01,
526,-9.916001e-02,-1.018400e-01,
527,-9.916001e-02,-1.018400e-01,
528,-1.005000e-01,-1.045200e-01,
529,-1.018400e-01,-1.031800e-01,
530,-1.045200e-01,-1.058600e-01,
531,-1.031800e-01,-1.058600e-01,
532,-1.058600e-01,-1.072000e-01,
533,-1.045200e-01,-1.072000e-01,
534,-1.072000e-01,-1.085400e-01,
535,-1.072000e-01,-1.098800e-01,
536,-1.085400e-01,-1.098800e-01,
537,-1.085400e-01,-1.112200e-01,
538,-1.098800e-01,-1.112200e-01,
539,-1.098800e-01,-1.125600e-01,
540,-1.112200e-01,-1.139000e-01,
541,-1.112200e-01,-1.139000e-01,
542,-1.125600e-01,-1.152400e-01,
543,-1.112200e-01,-1.152400e-01,
544,-1.139000e-01,-1.152400e-01,
545,-1.125600e-01,-1.165800e-01,
546,-1.152400e-01,-1.165800e-01,
547,-1.152400e-01,-1.165800e-01,
548,-1.152400e-01,-1.179200e-01,
549,-1.152400e-01,-1.179200e-01,
550,-1.165800e-01,-1.192600e-01,
551,-1.165800e-01,-1.179200e-01,
552,-1.179200e-01,-1.192600e-01,
553,-1.179200e-01,-1.206000e-01,
554,-1.192600e-01,-1.206000e-01,
555,-1.192600e-01,-1.206000e-01,
556,-1.192600e-01,-1.206000e-01,
557,-1.192600e-01,-1.206000e-01,
558,-1.192600e-01,-1.219400e-01,
559,-1.192600e-01,-1.232800e-01,
560,-1.206000e-01,-1.232800e-01,
561,-1.206000e-01,-1.219400e-01,
562,-1.206000e-01,-1.232800e-01,
563,-1.219400e-01,-1.232800e-01,
564,-1.219400e-01,-1.246200e-01,
565,-1.219400e-01,-1.246200e-01,
566,-1.219400e-01,-1.232800e-01,
567,-1.232800e-01,-1.246200e-01,
568,-1.219400e-01,-1.246200e-01,
569,-1.232800e-01,-1.246200e-01,
570,-1.219400e-01,-1.246200e-01,
571,-1.232800e-01,-1.246200e-01,
572,-1.219400e-01,-1.246200e-01,
573,-1.219400e-01,-1.259600e-01,
574,-1.232800e-01,-1.246200e-01,
575,-1.232800e-01,-1.246200e-01,
576,-1.232800e-01,-1.259600e-01,
577,-1.219400e-01,-1.246200e-01,
578,-1.232800e-01,-1.246200e-01,
579,-1.232800e-01,-1.259600e-01,
580,-1.219400e-01,-1.246200e-01,
581,-1.219400e-01,-1.246200e-01,
582,-1.219400e-01,-1.246200e-01,
583,-1.219400e-01,-1.246200e-01,
584,-1.219400e-01,-1.232800e-01,
585,-1.232800e-01,-1.232800e-01,
586,-1.219400e-01,-1.246200e-01,
587,-1.219400e-01,-1.232800e-01,
588,-1.219400e-01,-1.232800e-01,
589,-1.206000e-01,-1.232800e-01,
590,-1.206000e-01,-1.232800e-01,
591,-1.206000e-01,-1.232800e-01,
592,-1.192600e-01,-1.232800e-01,
593,-1.206000e-01,-1.219400e-01,
594,-1.192600e-01,-1.219400e-01,
595,-1.192600e-01,-1.206000e-01,
596,-1.192600e-01,-1.206000e-01,
597,-1.192600e-01,-1.206000e-01,
598,-1.179200e-01,-1.206000e-01,
599,-1.179200e-01,-1.206000e-01,
600,-1.165800e-01,-1.192600e-01,
601,-1.165800e-01,-1.179200e-01,
602,-1.165800e-01,-1.179200e-01,
603,-1.165800e-01,-1.192600e-01,
604,-1.152400e-01,-1.179200e-01,
605,-1.152400e-01,-1.179200e-01,
606,-1.139000e-01,-1.165800e-01,
607,-1.139000e-01,-1.165800e-01,
608,-1.125600e-01,-1.152400e-01,
609,-1.125600e-01,-1.152400e-01,
610,-1.112200e-01,-1.139000e-01,
611,-1.112200e-01,-1.125600e-01,
612,-1.098800e-01,-1.125600e-01,
613,-1.112200e-01,-1.125600e-01,
614,-1.085400e-01,-1.098800e-01,
615,-1.085400e-01,-1.098800e-01,
616,-1.072000e-01,-1.098800e-01,
617,-1.072000e-01,-1.098800e-01,
618,-1.058600e-01,-1.072000e-01,
619,-1.058600e-01,-1.072000e-01,
620,-1.031800e-01,-1.058600e-01,
621,-1.045200e-01,-1.058600e-01,
