Esp1_2/Data/Newfile10.csv

X,CH1,CH2,Start,Increment,
Sequence,Volt,Volt,-1.400000e-03,2.000000e-06,
0,-2.860000e-01,-3.124000e+00,
1,-2.860000e-01,-3.124000e+00,
2,-2.860000e-01,-3.124000e+00,
3,-2.860000e-01,-3.124000e+00,
4,-2.964000e-01,-3.237600e+00,
5,-2.964000e-01,-3.180800e+00,
6,-3.068000e-01,-3.294400e+00,
7,-3.068000e-01,-3.351200e+00,
8,-3.120000e-01,-3.408000e+00,
9,-3.172000e-01,-3.464800e+00,
10,-3.224000e-01,-3.521600e+00,
11,-3.276000e-01,-3.578400e+00,
12,-3.328000e-01,-3.635200e+00,
13,-3.380000e-01,-3.692000e+00,
14,-3.432000e-01,-3.748800e+00,
15,-3.432000e-01,-3.748800e+00,
16,-3.536000e-01,-3.862400e+00,
17,-3.536000e-01,-3.862400e+00,
18,-3.588000e-01,-3.919200e+00,
19,-3.588000e-01,-3.976000e+00,
20,-3.692000e-01,-4.032800e+00,
21,-3.692000e-01,-3.976000e+00,
22,-3.744000e-01,-4.089600e+00,
23,-3.796000e-01,-4.146400e+00,
24,-3.848000e-01,-4.203200e+00,
25,-3.848000e-01,-4.260000e+00,
26,-3.900000e-01,-4.260000e+00,
27,-3.952000e-01,-4.316800e+00,
28,-4.004000e-01,-4.373600e+00,
29,-4.004000e-01,-4.373600e+00,
30,-4.108000e-01,-4.487200e+00,
31,-4.108000e-01,-4.544000e+00,
32,-4.160000e-01,-4.487200e+00,
33,-4.160000e-01,-4.544000e+00,
34,-4.212000e-01,-4.600800e+00,
35,-4.212000e-01,-4.657600e+00,
36,-4.264000e-01,-4.714400e+00,
37,-4.316000e-01,-4.714400e+00,
38,-4.316000e-01,-4.771200e+00,
39,-4.368000e-01,-4.771200e+00,
40,-4.420000e-01,-4.828000e+00,
41,-4.420000e-01,-4.828000e+00,
42,-4.472000e-01,-4.884799e+00,
43,-4.472000e-01,-4.941600e+00,
44,-4.524000e-01,-4.941600e+00,
45,-4.524000e-01,-4.941600e+00,
46,-4.576000e-01,-4.998400e+00,
47,-4.576000e-01,-5.055200e+00,
48,-4.576000e-01,-5.055200e+00,
49,-4.628000e-01,-5.055200e+00,
50,-4.628000e-01,-5.112000e+00,
51,-4.680000e-01,-5.112000e+00,
52,-4.680000e-01,-5.168800e+00,
53,-4.680000e-01,-5.168800e+00,
54,-4.732000e-01,-5.168800e+00,
55,-4.732000e-01,-5.225600e+00,
56,-4.784000e-01,-5.225600e+00,
57,-4.784000e-01,-5.225600e+00,
58,-4.784000e-01,-5.225600e+00,
59,-4.784000e-01,-5.282400e+00,
60,-4.836000e-01,-5.282400e+00,
61,-4.836000e-01,-5.339200e+00,
62,-4.836000e-01,-5.339200e+00,
63,-4.836000e-01,-5.396000e+00,
64,-4.888000e-01,-5.339200e+00,
65,-4.836000e-01,-5.396000e+00,
66,-4.888000e-01,-5.396000e+00,
67,-4.888000e-01,-5.396000e+00,
68,-4.940000e-01,-5.396000e+00,
69,-4.888000e-01,-5.452800e+00,
70,-4.940000e-01,-5.452800e+00,
71,-4.940000e-01,-5.452800e+00,
72,-4.940000e-01,-5.452800e+00,
73,-4.940000e-01,-5.452800e+00,
74,-4.940000e-01,-5.452800e+00,
75,-4.992000e-01,-5.452800e+00,
76,-4.940000e-01,-5.452800e+00,
77,-4.940000e-01,-5.452800e+00,
78,-4.940000e-01,-5.452800e+00,
79,-4.940000e-01,-5.509600e+00,
80,-4.940000e-01,-5.452800e+00,
81,-4.992000e-01,-5.509600e+00,
82,-4.940000e-01,-5.509600e+00,
83,-4.940000e-01,-5.452800e+00,
84,-4.940000e-01,-5.452800e+00,
85,-4.992000e-01,-5.452800e+00,
86,-4.888000e-01,-5.452800e+00,
87,-4.940000e-01,-5.452800e+00,
88,-4.940000e-01,-5.452800e+00,
89,-4.888000e-01,-5.452800e+00,
90,-4.888000e-01,-5.396000e+00,
91,-4.888000e-01,-5.396000e+00,
92,-4.888000e-01,-5.396000e+00,
93,-4.888000e-01,-5.396000e+00,
94,-4.836000e-01,-5.339200e+00,
95,-4.836000e-01,-5.396000e+00,
96,-4.784000e-01,-5.339200e+00,
97,-4.836000e-01,-5.339200e+00,
98,-4.784000e-01,-5.282400e+00,
99,-4.784000e-01,-5.339200e+00,
100,-4.784000e-01,-5.282400e+00,
101,-4.732000e-01,-5.225600e+00,
102,-4.732000e-01,-5.225600e+00,
103,-4.680000e-01,-5.168800e+00,
104,-4.680000e-01,-5.225600e+00,
105,-4.680000e-01,-5.168800e+00,
106,-4.628000e-01,-5.168800e+00,
107,-4.628000e-01,-5.168800e+00,
108,-4.576000e-01,-5.112000e+00,
109,-4.576000e-01,-5.055200e+00,
110,-4.576000e-01,-5.055200e+00,
111,-4.524000e-01,-4.998400e+00,
112,-4.472000e-01,-4.998400e+00,
113,-4.524000e-01,-4.998400e+00,
114,-4.420000e-01,-4.941600e+00,
115,-4.420000e-01,-4.941600e+00,
116,-4.368000e-01,-4.884799e+00,
117,-4.420000e-01,-4.884799e+00,
118,-4.316000e-01,-4.828000e+00,
119,-4.316000e-01,-4.828000e+00,
120,-4.264000e-01,-4.771200e+00,
121,-4.212000e-01,-4.714400e+00,
122,-4.212000e-01,-4.714400e+00,
123,-4.160000e-01,-4.657600e+00,
124,-4.108000e-01,-4.600800e+00,
125,-4.108000e-01,-4.600800e+00,
126,-4.056000e-01,-4.544000e+00,
127,-4.004000e-01,-4.487200e+00,
128,-4.004000e-01,-4.430400e+00,
129,-3.952000e-01,-4.430400e+00,
130,-3.900000e-01,-4.373600e+00,
131,-3.900000e-01,-4.373600e+00,
132,-3.848000e-01,-4.260000e+00,
133,-3.796000e-01,-4.316800e+00,
134,-3.744000e-01,-4.203200e+00,
135,-3.692000e-01,-4.203200e+00,
136,-3.692000e-01,-4.146400e+00,
137,-3.640000e-01,-4.089600e+00,
138,-3.588000e-01,-4.032800e+00,
139,-3.536000e-01,-3.976000e+00,
140,-3.484000e-01,-3.919200e+00,
141,-3.484000e-01,-3.862400e+00,
142,-3.380000e-01,-3.805600e+00,
143,-3.380000e-01,-3.805600e+00,
144,-3.328000e-01,-3.692000e+00,
145,-3.276000e-01,-3.748800e+00,
146,-3.224000e-01,-3.635200e+00,
147,-3.224000e-01,-3.578400e+00,
148,-3.120000e-01,-3.521600e+00,
149,-3.068000e-01,-3.464800e+00,
150,-3.016000e-01,-3.408000e+00,
151,-3.016000e-01,-3.408000e+00,
152,-2.912000e-01,-3.294400e+00,
153,-2.912000e-01,-3.294400e+00,
154,-2.808000e-01,-3.180800e+00,
155,-2.808000e-01,-3.180800e+00,
156,-2.704000e-01,-3.067200e+00,
157,-2.704000e-01,-3.067200e+00,
158,-2.600000e-01,-2.953600e+00,
159,-2.600000e-01,-2.953600e+00,
160,-2.496000e-01,-2.840000e+00,
161,-2.444000e-01,-2.783200e+00,
162,-2.392000e-01,-2.726400e+00,
163,-2.340000e-01,-2.669600e+00,
164,-2.288000e-01,-2.612800e+00,
165,-2.236000e-01,-2.612800e+00,
166,-2.184000e-01,-2.442400e+00,
167,-2.132000e-01,-2.442400e+00,
168,-2.028000e-01,-2.328800e+00,
169,-2.028000e-01,-2.328800e+00,
170,-1.924000e-01,-2.215200e+00,
171,-1.924000e-01,-2.215200e+00,
172,-1.820000e-01,-2.101600e+00,
173,-1.768000e-01,-2.101600e+00,
174,-1.664000e-01,-1.931200e+00,
175,-1.716000e-01,-1.931200e+00,
176,-1.612000e-01,-1.817600e+00,
177,-1.560000e-01,-1.817600e+00,
178,-1.456000e-01,-1.704000e+00,
179,-1.456000e-01,-1.704000e+00,
180,-1.352000e-01,-1.590400e+00,
181,-1.300000e-01,-1.533600e+00,
182,-1.196000e-01,-1.420000e+00,
183,-1.196000e-01,-1.420000e+00,
184,-1.092000e-01,-1.306400e+00,
185,-1.040000e-01,-1.306400e+00,
186,-9.880000e-02,-1.136000e+00,
187,-9.360000e-02,-1.136000e+00,
188,-8.840000e-02,-1.022400e+00,
189,-8.320000e-02,-1.022400e+00,
190,-7.280000e-02,-9.087999e-01,
191,-6.760000e-02,-8.519999e-01,
192,-5.720000e-02,-7.384000e-01,
193,-6.240000e-02,-7.384000e-01,
194,-4.680000e-02,-6.248000e-01,
195,-4.680000e-02,-5.680000e-01,
196,-3.640000e-02,-4.544000e-01,
197,-3.120000e-02,-4.544000e-01,
198,-2.080000e-02,-3.408000e-01,
199,-2.600000e-02,-3.408000e-01,
200,-1.040000e-02,-1.704000e-01,
201,-5.200000e-03,-2.272000e-01,
202,5.200000e-03,-5.680000e-02,
203,5.200000e-03,-5.680000e-02,
204,1.560000e-02,1.136000e-01,
205,2.080000e-02,1.136000e-01,
206,2.600000e-02,2.272000e-01,
207,3.120000e-02,2.272000e-01,
208,4.160000e-02,3.408000e-01,
209,4.680000e-02,3.408000e-01,
210,5.200000e-02,5.112000e-01,
211,5.720000e-02,5.112000e-01,
212,6.760000e-02,6.248000e-01,
213,6.760000e-02,6.816000e-01,
214,7.800000e-02,7.951999e-01,
215,8.320000e-02,7.951999e-01,
216,9.360000e-02,9.087999e-01,
217,8.840000e-02,9.087999e-01,
218,1.040000e-01,1.022400e+00,
219,1.040000e-01,1.079200e+00,
220,1.144000e-01,1.192800e+00,
221,1.196000e-01,1.192800e+00,
222,1.248000e-01,1.306400e+00,
223,1.300000e-01,1.306400e+00,
224,1.404000e-01,1.420000e+00,
225,1.404000e-01,1.476800e+00,
226,1.508000e-01,1.590400e+00,
227,1.560000e-01,1.590400e+00,
228,1.664000e-01,1.704000e+00,
229,1.612000e-01,1.760800e+00,
230,1.768000e-01,1.874400e+00,
231,1.768000e-01,1.874400e+00,
232,1.872000e-01,1.988000e+00,
233,1.872000e-01,1.988000e+00,
234,1.976000e-01,2.101600e+00,
235,2.028000e-01,2.101600e+00,
236,2.132000e-01,2.215200e+00,
237,2.132000e-01,2.272000e+00,
238,2.236000e-01,2.385600e+00,
239,2.236000e-01,2.385600e+00,
240,2.340000e-01,2.499200e+00,
241,2.340000e-01,2.499200e+00,
242,2.444000e-01,2.612800e+00,
243,2.444000e-01,2.612800e+00,
244,2.548000e-01,2.726400e+00,
245,2.600000e-01,2.726400e+00,
246,2.652000e-01,2.840000e+00,
247,2.704000e-01,2.840000e+00,
248,2.808000e-01,2.953600e+00,
249,2.756000e-01,3.010400e+00,
250,2.860000e-01,3.067200e+00,
251,2.912000e-01,3.124000e+00,
252,2.964000e-01,3.180800e+00,
253,3.016000e-01,3.237600e+00,
254,3.068000e-01,3.294400e+00,
255,3.068000e-01,3.294400e+00,
256,3.172000e-01,3.408000e+00,
257,3.172000e-01,3.464800e+00,
258,3.276000e-01,3.521600e+00,
259,3.276000e-01,3.521600e+00,
260,3.328000e-01,3.635200e+00,
261,3.380000e-01,3.635200e+00,
262,3.484000e-01,3.692000e+00,
263,3.432000e-01,3.748800e+00,
264,3.536000e-01,3.805600e+00,
265,3.588000e-01,3.862400e+00,
266,3.640000e-01,3.919200e+00,
267,3.640000e-01,3.919200e+00,
268,3.744000e-01,4.032800e+00,
269,3.744000e-01,4.032800e+00,
270,3.796000e-01,4.146400e+00,
271,3.848000e-01,4.089600e+00,
272,3.900000e-01,4.203200e+00,
273,3.952000e-01,4.260000e+00,
274,3.952000e-01,4.316800e+00,
275,4.004000e-01,4.373600e+00,
276,4.056000e-01,4.373600e+00,
277,4.004000e-01,4.430400e+00,
278,4.108000e-01,4.487200e+00,
279,4.160000e-01,4.487200e+00,
280,4.160000e-01,4.544000e+00,
281,4.212000e-01,4.544000e+00,
282,4.264000e-01,4.600800e+00,
283,4.264000e-01,4.657600e+00,
284,4.368000e-01,4.714400e+00,
285,4.368000e-01,4.714400e+00,
286,4.368000e-01,4.771200e+00,
287,4.420000e-01,4.828000e+00,
288,4.472000e-01,4.828000e+00,
289,4.472000e-01,4.884799e+00,
290,4.524000e-01,4.884799e+00,
291,4.472000e-01,4.941600e+00,
292,4.576000e-01,4.941600e+00,
293,4.576000e-01,4.998400e+00,
294,4.628000e-01,5.055200e+00,
295,4.576000e-01,4.998400e+00,
296,4.680000e-01,5.055200e+00,
297,4.680000e-01,5.112000e+00,
298,4.732000e-01,5.112000e+00,
299,4.732000e-01,5.168800e+00,
300,4.784000e-01,5.168800e+00,
301,4.784000e-01,5.225600e+00,
302,4.784000e-01,5.225600e+00,
303,4.836000e-01,5.225600e+00,
304,4.836000e-01,5.282400e+00,
305,4.836000e-01,5.282400e+00,
306,4.888000e-01,5.282400e+00,
307,4.836000e-01,5.339200e+00,
308,4.940000e-01,5.339200e+00,
309,4.940000e-01,5.396000e+00,
310,4.940000e-01,5.396000e+00,
311,4.940000e-01,5.396000e+00,
312,4.992000e-01,5.452800e+00,
313,4.940000e-01,5.396000e+00,
314,4.940000e-01,5.452800e+00,
315,4.992000e-01,5.396000e+00,
316,4.992000e-01,5.452800e+00,
317,4.992000e-01,5.509600e+00,
318,5.044000e-01,5.509600e+00,
319,5.044000e-01,5.452800e+00,
320,5.044000e-01,5.509600e+00,
321,4.992000e-01,5.566400e+00,
322,5.044000e-01,5.566400e+00,
323,4.992000e-01,5.509600e+00,
324,5.044000e-01,5.566400e+00,
325,5.044000e-01,5.509600e+00,
326,5.096000e-01,5.566400e+00,
327,5.044000e-01,5.509600e+00,
328,5.044000e-01,5.566400e+00,
329,5.044000e-01,5.509600e+00,
330,5.096000e-01,5.566400e+00,
331,5.044000e-01,5.509600e+00,
332,5.044000e-01,5.566400e+00,
333,5.044000e-01,5.509600e+00,
334,5.044000e-01,5.566400e+00,
335,4.992000e-01,5.509600e+00,
336,5.044000e-01,5.566400e+00,
337,4.992000e-01,5.509600e+00,
338,4.992000e-01,5.509600e+00,
339,4.992000e-01,5.509600e+00,
340,4.940000e-01,5.452800e+00,
341,4.992000e-01,5.509600e+00,
342,4.992000e-01,5.452800e+00,
343,4.940000e-01,5.452800e+00,
344,4.940000e-01,5.452800e+00,
345,4.940000e-01,5.396000e+00,
346,4.940000e-01,5.452800e+00,
347,4.940000e-01,5.396000e+00,
348,4.888000e-01,5.396000e+00,
349,4.888000e-01,5.339200e+00,
350,4.888000e-01,5.339200e+00,
351,4.836000e-01,5.396000e+00,
352,4.836000e-01,5.339200e+00,
353,4.784000e-01,5.282400e+00,
354,4.784000e-01,5.282400e+00,
355,4.732000e-01,5.225600e+00,
356,4.732000e-01,5.225600e+00,
357,4.732000e-01,5.225600e+00,
358,4.680000e-01,5.168800e+00,
359,4.732000e-01,5.168800e+00,
360,4.680000e-01,5.168800e+00,
361,4.628000e-01,5.112000e+00,
362,4.628000e-01,5.055200e+00,
363,4.628000e-01,5.112000e+00,
364,4.576000e-01,5.055200e+00,
365,4.524000e-01,4.998400e+00,
366,4.524000e-01,4.998400e+00,
367,4.472000e-01,4.941600e+00,
368,4.420000e-01,4.884799e+00,
369,4.420000e-01,4.884799e+00,
370,4.368000e-01,4.828000e+00,
371,4.316000e-01,4.828000e+00,
372,4.316000e-01,4.771200e+00,
373,4.264000e-01,4.714400e+00,
374,4.264000e-01,4.714400e+00,
375,4.212000e-01,4.657600e+00,
376,4.160000e-01,4.600800e+00,
377,4.160000e-01,4.600800e+00,
378,4.108000e-01,4.544000e+00,
379,4.056000e-01,4.544000e+00,
380,4.004000e-01,4.487200e+00,
381,4.004000e-01,4.430400e+00,
382,3.952000e-01,4.373600e+00,
383,3.952000e-01,4.316800e+00,
384,3.848000e-01,4.316800e+00,
385,3.848000e-01,4.260000e+00,
386,3.796000e-01,4.203200e+00,
387,3.796000e-01,4.203200e+00,
388,3.692000e-01,4.089600e+00,
389,3.692000e-01,4.089600e+00,
390,3.588000e-01,4.032800e+00,
391,3.588000e-01,3.976000e+00,
392,3.536000e-01,3.919200e+00,
393,3.484000e-01,3.919200e+00,
394,3.432000e-01,3.805600e+00,
395,3.432000e-01,3.748800e+00,
396,3.328000e-01,3.692000e+00,
397,3.328000e-01,3.692000e+00,
398,3.224000e-01,3.578400e+00,
399,3.224000e-01,3.578400e+00,
400,3.120000e-01,3.521600e+00,
401,3.120000e-01,3.464800e+00,
402,3.016000e-01,3.408000e+00,
403,3.016000e-01,3.351200e+00,
404,2.912000e-01,3.294400e+00,
405,2.912000e-01,3.237600e+00,
406,2.808000e-01,3.180800e+00,
407,2.808000e-01,3.124000e+00,
408,2.756000e-01,3.067200e+00,
409,2.704000e-01,3.067200e+00,
410,2.600000e-01,2.953600e+00,
411,2.600000e-01,2.953600e+00,
412,2.496000e-01,2.840000e+00,
413,2.496000e-01,2.783200e+00,
414,2.392000e-01,2.726400e+00,
415,2.392000e-01,2.669600e+00,
416,2.288000e-01,2.612800e+00,
417,2.288000e-01,2.556000e+00,
418,2.184000e-01,2.442400e+00,
419,2.132000e-01,2.442400e+00,
420,2.080000e-01,2.328800e+00,
421,2.028000e-01,2.272000e+00,
422,1.924000e-01,2.215200e+00,
423,1.924000e-01,2.158400e+00,
424,1.820000e-01,2.101600e+00,
425,1.820000e-01,2.044800e+00,
426,1.716000e-01,1.931200e+00,
427,1.664000e-01,1.931200e+00,
428,1.612000e-01,1.817600e+00,
429,1.612000e-01,1.760800e+00,
430,1.456000e-01,1.704000e+00,
431,1.456000e-01,1.647200e+00,
432,1.352000e-01,1.590400e+00,
433,1.300000e-01,1.533600e+00,
434,1.248000e-01,1.420000e+00,
435,1.196000e-01,1.420000e+00,
436,1.092000e-01,1.306400e+00,
437,1.092000e-01,1.249600e+00,
438,9.880000e-02,1.136000e+00,
439,9.880000e-02,1.136000e+00,
440,8.840000e-02,1.022400e+00,
441,8.320000e-02,1.022400e+00,
442,7.800000e-02,9.087999e-01,
443,7.800000e-02,8.519999e-01,
444,6.240000e-02,7.384000e-01,
445,5.720000e-02,7.384000e-01,
446,5.200000e-02,6.248000e-01,
447,4.680000e-02,5.680000e-01,
448,3.640000e-02,4.544000e-01,
449,3.640000e-02,4.544000e-01,
450,2.600000e-02,3.408000e-01,
451,2.080000e-02,3.408000e-01,
452,1.040000e-02,1.704000e-01,
453,1.040000e-02,1.704000e-01,
454,0.000000e+00,5.680000e-02,
455,-5.200000e-03,0.000000e+00,
456,-1.560000e-02,-5.680000e-02,
457,-1.560000e-02,-1.136000e-01,
458,-2.600000e-02,-2.272000e-01,
459,-3.120000e-02,-2.840000e-01,
460,-3.640000e-02,-3.408000e-01,
461,-3.640000e-02,-3.976000e-01,
462,-5.200000e-02,-5.112000e-01,
463,-5.200000e-02,-5.680000e-01,
464,-6.240000e-02,-6.248000e-01,
465,-6.760000e-02,-6.816000e-01,
466,-7.800000e-02,-7.951999e-01,
467,-7.800000e-02,-7.951999e-01,
468,-8.840000e-02,-9.087999e-01,
469,-8.840000e-02,-9.656000e-01,
470,-9.880000e-02,-1.022400e+00,
471,-1.040000e-01,-1.079200e+00,
472,-1.144000e-01,-1.192800e+00,
473,-1.144000e-01,-1.249600e+00,
474,-1.248000e-01,-1.306400e+00,
475,-1.300000e-01,-1.363200e+00,
476,-1.404000e-01,-1.476800e+00,
477,-1.404000e-01,-1.476800e+00,
478,-1.508000e-01,-1.590400e+00,
479,-1.560000e-01,-1.647200e+00,
480,-1.612000e-01,-1.704000e+00,
481,-1.664000e-01,-1.760800e+00,
482,-1.768000e-01,-1.817600e+00,
483,-1.768000e-01,-1.874400e+00,
484,-1.872000e-01,-1.988000e+00,
485,-1.872000e-01,-2.044800e+00,
486,-1.976000e-01,-2.101600e+00,
487,-2.028000e-01,-2.101600e+00,
488,-2.080000e-01,-2.272000e+00,
489,-2.132000e-01,-2.272000e+00,
490,-2.184000e-01,-2.385600e+00,
491,-2.236000e-01,-2.385600e+00,
492,-2.288000e-01,-2.499200e+00,
493,-2.340000e-01,-2.499200e+00,
494,-2.444000e-01,-2.612800e+00,
495,-2.444000e-01,-2.612800e+00,
496,-2.548000e-01,-2.726400e+00,
497,-2.548000e-01,-2.783200e+00,
498,-2.652000e-01,-2.840000e+00,
499,-2.652000e-01,-2.896800e+00,
500,-2.756000e-01,-2.953600e+00,
501,-2.756000e-01,-2.953600e+00,
502,-2.860000e-01,-3.067200e+00,
503,-2.860000e-01,-3.124000e+00,
504,-2.912000e-01,-3.180800e+00,
505,-2.964000e-01,-3.237600e+00,
506,-3.068000e-01,-3.294400e+00,
507,-3.068000e-01,-3.351200e+00,
508,-3.120000e-01,-3.408000e+00,
509,-3.172000e-01,-3.464800e+00,
510,-3.224000e-01,-3.521600e+00,
511,-3.276000e-01,-3.578400e+00,
512,-3.328000e-01,-3.635200e+00,
513,-3.380000e-01,-3.692000e+00,
514,-3.432000e-01,-3.748800e+00,
515,-3.432000e-01,-3.748800e+00,
516,-3.484000e-01,-3.862400e+00,
517,-3.536000e-01,-3.862400e+00,
518,-3.588000e-01,-3.919200e+00,
519,-3.588000e-01,-3.919200e+00,
520,-3.692000e-01,-4.032800e+00,
521,-3.692000e-01,-4.032800e+00,
522,-3.796000e-01,-4.089600e+00,
523,-3.796000e-01,-4.146400e+00,
524,-3.848000e-01,-4.203200e+00,
525,-3.848000e-01,-4.260000e+00,
526,-3.952000e-01,-4.316800e+00,
527,-3.952000e-01,-4.316800e+00,
528,-4.004000e-01,-4.373600e+00,
529,-4.004000e-01,-4.430400e+00,
530,-4.056000e-01,-4.487200e+00,
531,-4.108000e-01,-4.487200e+00,
532,-4.160000e-01,-4.544000e+00,
533,-4.160000e-01,-4.544000e+00,
534,-4.212000e-01,-4.600800e+00,
535,-4.212000e-01,-4.657600e+00,
536,-4.264000e-01,-4.714400e+00,
537,-4.316000e-01,-4.714400e+00,
538,-4.368000e-01,-4.714400e+00,
539,-4.368000e-01,-4.771200e+00,
540,-4.420000e-01,-4.828000e+00,
541,-4.420000e-01,-4.884799e+00,
542,-4.472000e-01,-4.884799e+00,
543,-4.472000e-01,-4.941600e+00,
544,-4.524000e-01,-4.941600e+00,
545,-4.524000e-01,-4.941600e+00,
546,-4.576000e-01,-4.998400e+00,
547,-4.576000e-01,-5.055200e+00,
548,-4.576000e-01,-5.055200e+00,
549,-4.628000e-01,-5.112000e+00,
550,-4.628000e-01,-5.112000e+00,
551,-4.680000e-01,-5.112000e+00,
552,-4.732000e-01,-5.112000e+00,
553,-4.680000e-01,-5.168800e+00,
554,-4.732000e-01,-5.225600e+00,
555,-4.732000e-01,-5.225600e+00,
556,-4.732000e-01,-5.225600e+00,
557,-4.732000e-01,-5.282400e+00,
558,-4.784000e-01,-5.225600e+00,
559,-4.836000e-01,-5.282400e+00,
560,-4.836000e-01,-5.339200e+00,
561,-4.836000e-01,-5.282400e+00,
562,-4.836000e-01,-5.339200e+00,
563,-4.836000e-01,-5.396000e+00,
564,-4.888000e-01,-5.339200e+00,
565,-4.888000e-01,-5.396000e+00,
566,-4.888000e-01,-5.396000e+00,
567,-4.888000e-01,-5.396000e+00,
568,-4.888000e-01,-5.452800e+00,
569,-4.940000e-01,-5.396000e+00,
570,-4.888000e-01,-5.452800e+00,
571,-4.940000e-01,-5.452800e+00,
572,-4.940000e-01,-5.452800e+00,
573,-4.940000e-01,-5.452800e+00,
574,-4.940000e-01,-5.452800e+00,
575,-4.940000e-01,-5.452800e+00,
576,-4.940000e-01,-5.452800e+00,
577,-4.992000e-01,-5.452800e+00,
578,-4.940000e-01,-5.452800e+00,
579,-4.992000e-01,-5.452800e+00,
580,-4.940000e-01,-5.452800e+00,
581,-4.940000e-01,-5.509600e+00,
582,-4.940000e-01,-5.452800e+00,
583,-4.992000e-01,-5.452800e+00,
584,-4.940000e-01,-5.452800e+00,
585,-4.940000e-01,-5.452800e+00,
586,-4.888000e-01,-5.452800e+00,
587,-4.940000e-01,-5.452800e+00,
588,-4.888000e-01,-5.452800e+00,
589,-4.940000e-01,-5.396000e+00,
590,-4.940000e-01,-5.396000e+00,
591,-4.888000e-01,-5.396000e+00,
592,-4.888000e-01,-5.452800e+00,
593,-4.836000e-01,-5.396000e+00,
594,-4.836000e-01,-5.396000e+00,
595,-4.836000e-01,-5.339200e+00,
596,-4.836000e-01,-5.339200e+00,
597,-4.784000e-01,-5.282400e+00,
598,-4.784000e-01,-5.339200e+00,
599,-4.784000e-01,-5.282400e+00,
600,-4.732000e-01,-5.282400e+00,
601,-4.732000e-01,-5.225600e+00,
602,-4.732000e-01,-5.225600e+00,
603,-4.732000e-01,-5.225600e+00,
604,-4.680000e-01,-5.225600e+00,
605,-4.628000e-01,-5.168800e+00,
606,-4.628000e-01,-5.168800e+00,
607,-4.680000e-01,-5.112000e+00,
608,-4.576000e-01,-5.112000e+00,
609,-4.576000e-01,-5.055200e+00,
610,-4.576000e-01,-5.055200e+00,
611,-4.524000e-01,-5.055200e+00,
612,-4.472000e-01,-5.055200e+00,
613,-4.472000e-01,-4.998400e+00,
614,-4.472000e-01,-4.941600e+00,
615,-4.420000e-01,-4.941600e+00,
616,-4.368000e-01,-4.884799e+00,
617,-4.368000e-01,-4.828000e+00,
618,-4.316000e-01,-4.828000e+00,
619,-4.316000e-01,-4.828000e+00,
620,-4.264000e-01,-4.771200e+00,
621,-4.212000e-01,-4.714400e+00,
