Esp1/Data/Newfile23.csv

X,CH1,CH2,Start,Increment,
Sequence,Volt,Volt,-3.500000e-01,5.000000e-04,
0,4.400000e-01,3.720000e-02,
1,4.400000e-01,3.760000e-02,
2,4.400000e-01,3.720000e-02,
3,4.400000e-01,3.760000e-02,
4,4.320000e-01,3.600000e-02,
5,4.320000e-01,3.600000e-02,
6,4.320000e-01,3.640000e-02,
7,4.320000e-01,3.680000e-02,
8,4.320000e-01,3.520000e-02,
9,4.320000e-01,3.560000e-02,
10,4.320000e-01,3.520000e-02,
11,4.320000e-01,3.560000e-02,
12,4.240000e-01,3.240000e-02,
13,4.240000e-01,3.240000e-02,
14,4.320000e-01,3.080000e-02,
15,4.320000e-01,3.080000e-02,
16,4.240000e-01,3.320000e-02,
17,4.240000e-01,3.280000e-02,
18,4.320000e-01,3.080000e-02,
19,4.320000e-01,3.120000e-02,
20,4.240000e-01,2.920000e-02,
21,4.240000e-01,2.920000e-02,
22,4.240000e-01,2.880000e-02,
23,4.240000e-01,2.840000e-02,
24,4.240000e-01,2.760000e-02,
25,4.240000e-01,2.720000e-02,
26,4.240000e-01,2.480000e-02,
27,4.240000e-01,2.480000e-02,
28,4.240000e-01,2.560000e-02,
29,4.240000e-01,2.520000e-02,
30,4.160000e-01,2.360000e-02,
31,4.160000e-01,2.400000e-02,
32,4.160000e-01,2.280000e-02,
33,4.160000e-01,2.240000e-02,
34,4.160000e-01,2.240000e-02,
35,4.160000e-01,2.200000e-02,
36,4.160000e-01,1.880000e-02,
37,4.160000e-01,1.920000e-02,
38,4.080000e-01,1.960000e-02,
39,4.080000e-01,1.960000e-02,
40,4.080000e-01,1.680000e-02,
41,4.080000e-01,1.720000e-02,
42,4.000000e-01,2.000000e-02,
43,4.000000e-01,2.040000e-02,
44,4.080000e-01,1.680000e-02,
45,4.080000e-01,1.640000e-02,
46,4.000000e-01,1.320000e-02,
47,4.000000e-01,1.360000e-02,
48,4.000000e-01,1.440000e-02,
49,4.000000e-01,1.440000e-02,
50,4.000000e-01,1.320000e-02,
51,4.000000e-01,1.360000e-02,
52,3.920000e-01,1.280000e-02,
53,3.920000e-01,1.240000e-02,
54,3.920000e-01,1.120000e-02,
55,3.920000e-01,1.080000e-02,
56,3.920000e-01,1.160000e-02,
57,3.920000e-01,1.120000e-02,
58,3.840000e-01,9.600000e-03,
59,3.840000e-01,1.000000e-02,
60,3.840000e-01,9.200000e-03,
61,3.840000e-01,8.800000e-03,
62,3.760000e-01,7.999999e-03,
63,3.760000e-01,8.400000e-03,
64,3.760000e-01,5.600000e-03,
65,3.760000e-01,5.200000e-03,
66,3.760000e-01,7.200000e-03,
67,3.760000e-01,6.800000e-03,
68,3.680000e-01,4.400000e-03,
69,3.680000e-01,4.400000e-03,
70,3.680000e-01,5.200000e-03,
71,3.680000e-01,5.600000e-03,
72,3.600000e-01,6.000000e-03,
73,3.600000e-01,6.000000e-03,
74,3.600000e-01,3.200000e-03,
75,3.600000e-01,2.800000e-03,
76,3.600000e-01,2.400000e-03,
77,3.600000e-01,2.000000e-03,
78,3.520000e-01,4.000000e-03,
79,3.520000e-01,3.600000e-03,
80,3.440000e-01,2.000000e-03,
81,3.440000e-01,1.600000e-03,
82,3.360000e-01,3.200000e-03,
83,3.360000e-01,3.200000e-03,
84,3.360000e-01,4.800000e-03,
85,3.360000e-01,4.400000e-03,
86,3.280000e-01,2.000000e-03,
87,3.280000e-01,2.400000e-03,
88,3.280000e-01,2.400000e-03,
89,3.280000e-01,2.000000e-03,
90,3.280000e-01,8.000000e-04,
91,3.280000e-01,4.000000e-04,
92,3.200000e-01,5.200000e-03,
93,3.200000e-01,5.200000e-03,
94,3.120000e-01,4.000000e-04,
95,3.120000e-01,0.000000e+00,
96,3.120000e-01,-4.000000e-04,
97,3.120000e-01,0.000000e+00,
98,3.040000e-01,1.600000e-03,
99,3.040000e-01,1.200000e-03,
100,3.040000e-01,8.000000e-04,
101,3.040000e-01,1.200000e-03,
102,2.960000e-01,1.600000e-03,
103,2.960000e-01,2.000000e-03,
104,2.960000e-01,0.000000e+00,
105,2.960000e-01,0.000000e+00,
106,2.880000e-01,4.000000e-04,
107,2.880000e-01,4.000000e-04,
108,2.880000e-01,8.000000e-04,
109,2.880000e-01,8.000000e-04,
110,2.720000e-01,4.000000e-04,
111,2.720000e-01,0.000000e+00,
112,2.720000e-01,8.000000e-04,
113,2.720000e-01,1.200000e-03,
114,2.640000e-01,-1.600000e-03,
115,2.640000e-01,-2.000000e-03,
116,2.560000e-01,1.600000e-03,
117,2.560000e-01,2.000000e-03,
118,2.560000e-01,8.000000e-04,
119,2.560000e-01,4.000000e-04,
120,2.480000e-01,8.000000e-04,
121,2.480000e-01,4.000000e-04,
122,2.480000e-01,-3.600000e-03,
123,2.480000e-01,-3.200000e-03,
124,2.400000e-01,1.200000e-03,
125,2.400000e-01,8.000000e-04,
126,2.320000e-01,-1.600000e-03,
127,2.320000e-01,-1.600000e-03,
128,2.240000e-01,-8.000000e-04,
129,2.240000e-01,-1.200000e-03,
130,2.240000e-01,1.200000e-03,
131,2.240000e-01,8.000000e-04,
132,2.240000e-01,8.000000e-04,
133,2.240000e-01,8.000000e-04,
134,2.080000e-01,1.200000e-03,
135,2.080000e-01,8.000000e-04,
136,2.080000e-01,-1.200000e-03,
137,2.080000e-01,-1.200000e-03,
138,2.000000e-01,-2.000000e-03,
139,2.000000e-01,-2.400000e-03,
140,1.920000e-01,-2.000000e-03,
141,1.920000e-01,-1.600000e-03,
142,1.920000e-01,-2.000000e-03,
143,1.920000e-01,-1.600000e-03,
144,1.840000e-01,-8.000000e-04,
145,1.840000e-01,-4.000000e-04,
146,1.760000e-01,0.000000e+00,
147,1.760000e-01,0.000000e+00,
148,1.680000e-01,-1.600000e-03,
149,1.680000e-01,-2.000000e-03,
150,1.680000e-01,-8.000000e-04,
151,1.680000e-01,-8.000000e-04,
152,1.600000e-01,-1.200000e-03,
153,1.600000e-01,-1.600000e-03,
154,1.520000e-01,-1.200000e-03,
155,1.520000e-01,-1.600000e-03,
156,1.440000e-01,-4.000000e-04,
157,1.440000e-01,-8.000000e-04,
158,1.440000e-01,-1.200000e-03,
159,1.440000e-01,-1.200000e-03,
160,1.360000e-01,-8.000000e-04,
161,1.360000e-01,-1.200000e-03,
162,1.360000e-01,4.000000e-04,
163,1.360000e-01,8.000000e-04,
164,1.200000e-01,1.200000e-03,
165,1.200000e-01,8.000000e-04,
166,1.200000e-01,4.000000e-04,
167,1.200000e-01,0.000000e+00,
168,1.120000e-01,-1.200000e-03,
169,1.120000e-01,-1.200000e-03,
170,1.040000e-01,-1.200000e-03,
171,1.040000e-01,-8.000000e-04,
172,1.040000e-01,-1.200000e-03,
173,1.040000e-01,-1.200000e-03,
174,8.800001e-02,4.000000e-04,
175,8.800001e-02,8.000000e-04,
176,8.800001e-02,8.000000e-04,
177,8.800001e-02,8.000000e-04,
178,8.000001e-02,1.200000e-03,
179,8.000001e-02,1.200000e-03,
180,7.200000e-02,8.000000e-04,
181,7.200000e-02,4.000000e-04,
182,7.200000e-02,4.000000e-04,
183,7.200000e-02,4.000000e-04,
184,6.400000e-02,4.000000e-04,
185,6.400000e-02,8.000000e-04,
186,5.600000e-02,-1.600000e-03,
187,5.600000e-02,-1.200000e-03,
188,4.800000e-02,4.000000e-04,
189,4.800000e-02,8.000000e-04,
190,4.800000e-02,-2.400000e-03,
191,4.800000e-02,-2.000000e-03,
192,4.000000e-02,-8.000000e-04,
193,4.000000e-02,-1.200000e-03,
194,3.200000e-02,-1.200000e-03,
195,3.200000e-02,-1.600000e-03,
196,2.400000e-02,0.000000e+00,
197,2.400000e-02,4.000000e-04,
198,1.600000e-02,8.000000e-04,
199,1.600000e-02,4.000000e-04,
200,1.600000e-02,4.000000e-04,
201,1.600000e-02,8.000000e-04,
202,8.000000e-03,-1.600000e-03,
203,8.000000e-03,-1.200000e-03,
204,0.000000e+00,8.000000e-04,
205,0.000000e+00,1.200000e-03,
206,-8.000000e-03,1.600000e-03,
207,-8.000000e-03,1.600000e-03,
208,-1.600000e-02,-8.000000e-04,
209,-1.600000e-02,-4.000000e-04,
210,-1.600000e-02,-4.400000e-03,
211,-1.600000e-02,-4.800000e-03,
212,-2.400000e-02,-1.200000e-03,
213,-2.400000e-02,-1.600000e-03,
214,-3.200000e-02,0.000000e+00,
215,-3.200000e-02,4.000000e-04,
216,-4.000000e-02,2.000000e-03,
217,-4.000000e-02,1.600000e-03,
218,-4.800000e-02,-1.600000e-03,
219,-4.800000e-02,-1.200000e-03,
220,-4.800000e-02,1.200000e-03,
221,-4.800000e-02,1.200000e-03,
222,-5.600000e-02,-1.200000e-03,
223,-5.600000e-02,-1.600000e-03,
224,-7.200000e-02,2.800000e-03,
225,-7.200000e-02,2.400000e-03,
226,-7.200000e-02,-1.200000e-03,
227,-7.200000e-02,-1.200000e-03,
228,-7.200000e-02,-8.000000e-04,
229,-7.200000e-02,-8.000000e-04,
230,-8.000001e-02,0.000000e+00,
231,-8.000001e-02,-4.000000e-04,
232,-8.800001e-02,-1.600000e-03,
233,-8.800001e-02,-1.200000e-03,
234,-9.600001e-02,-8.000000e-04,
235,-9.600001e-02,-1.200000e-03,
236,-9.600001e-02,-1.200000e-03,
237,-9.600001e-02,-1.200000e-03,
238,-1.040000e-01,-4.000000e-04,
239,-1.040000e-01,-8.000000e-04,
240,-1.120000e-01,-1.600000e-03,
241,-1.120000e-01,-2.000000e-03,
242,-1.200000e-01,-1.600000e-03,
243,-1.200000e-01,-1.200000e-03,
244,-1.280000e-01,-8.000000e-04,
245,-1.280000e-01,-4.000000e-04,
246,-1.280000e-01,-1.600000e-03,
247,-1.360000e-01,-1.200000e-03,
248,-1.360000e-01,8.000000e-04,
249,-1.360000e-01,1.200000e-03,
250,-1.440000e-01,4.000000e-04,
251,-1.440000e-01,0.000000e+00,
252,-1.520000e-01,2.000000e-03,
253,-1.520000e-01,1.600000e-03,
254,-1.520000e-01,-8.000000e-04,
255,-1.520000e-01,-1.200000e-03,
256,-1.600000e-01,1.600000e-03,
257,-1.600000e-01,1.200000e-03,
258,-1.600000e-01,1.200000e-03,
259,-1.600000e-01,1.600000e-03,
260,-1.680000e-01,4.000000e-04,
261,-1.680000e-01,4.000000e-04,
262,-1.760000e-01,-8.000000e-04,
263,-1.760000e-01,-1.200000e-03,
264,-1.840000e-01,-1.200000e-03,
265,-1.840000e-01,-1.600000e-03,
266,-1.920000e-01,-1.200000e-03,
267,-1.920000e-01,-1.200000e-03,
268,-1.920000e-01,-2.000000e-03,
269,-1.920000e-01,-2.000000e-03,
270,-2.000000e-01,-8.000000e-04,
271,-2.000000e-01,-1.200000e-03,
272,-2.080000e-01,4.000000e-04,
273,-2.080000e-01,8.000000e-04,
274,-2.160000e-01,-8.000000e-04,
275,-2.160000e-01,-8.000000e-04,
276,-2.160000e-01,1.200000e-03,
277,-2.160000e-01,8.000000e-04,
278,-2.240000e-01,-1.600000e-03,
279,-2.240000e-01,-1.200000e-03,
280,-2.320000e-01,-1.600000e-03,
281,-2.320000e-01,-1.600000e-03,
282,-2.320000e-01,1.200000e-03,
283,-2.320000e-01,1.200000e-03,
284,-2.400000e-01,0.000000e+00,
285,-2.400000e-01,4.000000e-04,
286,-2.480000e-01,-8.000000e-04,
287,-2.480000e-01,-1.200000e-03,
288,-2.480000e-01,8.000000e-04,
289,-2.480000e-01,4.000000e-04,
290,-2.560000e-01,8.000000e-04,
291,-2.560000e-01,1.200000e-03,
292,-2.640000e-01,8.000000e-04,
293,-2.640000e-01,4.000000e-04,
294,-2.720000e-01,8.000000e-04,
295,-2.640000e-01,4.000000e-04,
296,-2.720000e-01,1.600000e-03,
297,-2.720000e-01,1.200000e-03,
298,-2.800000e-01,4.000000e-04,
299,-2.800000e-01,0.000000e+00,
300,-2.800000e-01,-8.000000e-04,
301,-2.800000e-01,-4.000000e-04,
302,-2.880000e-01,-1.600000e-03,
303,-2.880000e-01,-2.000000e-03,
304,-2.880000e-01,-1.200000e-03,
305,-2.880000e-01,-1.200000e-03,
306,-3.040000e-01,-1.200000e-03,
307,-3.040000e-01,-8.000000e-04,
308,-3.040000e-01,8.000000e-04,
309,-3.040000e-01,4.000000e-04,
310,-3.120000e-01,8.000000e-04,
311,-3.120000e-01,4.000000e-04,
312,-3.120000e-01,4.000000e-04,
313,-3.120000e-01,4.000000e-04,
314,-3.200000e-01,-1.200000e-03,
315,-3.200000e-01,-1.600000e-03,
316,-3.200000e-01,-2.400000e-03,
317,-3.200000e-01,-2.000000e-03,
318,-3.280000e-01,8.000000e-04,
319,-3.280000e-01,4.000000e-04,
320,-3.280000e-01,-1.200000e-03,
321,-3.280000e-01,-8.000000e-04,
322,-3.360000e-01,-1.600000e-03,
323,-3.360000e-01,-2.000000e-03,
324,-3.440000e-01,-1.600000e-03,
325,-3.440000e-01,-1.200000e-03,
326,-3.440000e-01,1.600000e-03,
327,-3.440000e-01,2.000000e-03,
328,-3.440000e-01,-2.000000e-03,
329,-3.440000e-01,-2.000000e-03,
330,-3.600000e-01,-1.600000e-03,
331,-3.600000e-01,-1.200000e-03,
332,-3.600000e-01,-8.000000e-04,
333,-3.600000e-01,-1.200000e-03,
334,-3.600000e-01,4.000000e-04,
335,-3.600000e-01,8.000000e-04,
336,-3.680000e-01,8.000000e-04,
337,-3.680000e-01,4.000000e-04,
338,-3.680000e-01,4.000000e-04,
339,-3.680000e-01,0.000000e+00,
340,-3.760000e-01,8.000000e-04,
341,-3.760000e-01,8.000000e-04,
342,-3.840000e-01,-8.000000e-04,
343,-3.840000e-01,-1.200000e-03,
344,-3.840000e-01,0.000000e+00,
345,-3.840000e-01,4.000000e-04,
346,-3.920000e-01,8.000000e-04,
347,-3.920000e-01,4.000000e-04,
348,-3.920000e-01,-4.000000e-04,
349,-3.920000e-01,-8.000000e-04,
350,-4.000000e-01,4.000000e-04,
351,-4.000000e-01,4.000000e-04,
352,-4.000000e-01,1.200000e-03,
353,-4.000000e-01,1.200000e-03,
354,-4.000000e-01,-1.600000e-03,
355,-4.080000e-01,-1.200000e-03,
356,-4.080000e-01,0.000000e+00,
357,-4.000000e-01,4.000000e-04,
358,-4.080000e-01,2.400000e-03,
359,-4.080000e-01,2.800000e-03,
360,-4.160000e-01,8.000000e-04,
361,-4.160000e-01,1.200000e-03,
362,-4.240000e-01,3.600000e-03,
363,-4.240000e-01,3.200000e-03,
364,-4.160000e-01,-2.400000e-03,
365,-4.160000e-01,-2.000000e-03,
366,-4.240000e-01,8.000000e-04,
367,-4.240000e-01,1.200000e-03,
368,-4.240000e-01,1.200000e-03,
369,-4.240000e-01,8.000000e-04,
370,-4.320000e-01,-1.200000e-03,
371,-4.320000e-01,-1.200000e-03,
372,-4.320000e-01,-2.000000e-03,
373,-4.320000e-01,-2.000000e-03,
374,-4.320000e-01,4.000000e-04,
375,-4.320000e-01,4.000000e-04,
376,-4.400000e-01,0.000000e+00,
377,-4.400000e-01,4.000000e-04,
378,-4.480000e-01,3.600000e-03,
379,-4.480000e-01,3.600000e-03,
380,-4.480000e-01,-1.200000e-03,
381,-4.480000e-01,-8.000000e-04,
382,-4.400000e-01,-3.600000e-03,
383,-4.400000e-01,-3.600000e-03,
384,-4.480000e-01,-8.000000e-04,
385,-4.480000e-01,-4.000000e-04,
386,-4.480000e-01,-1.600000e-03,
387,-4.480000e-01,-2.000000e-03,
388,-4.560000e-01,-1.200000e-03,
389,-4.560000e-01,-1.600000e-03,
390,-4.560000e-01,0.000000e+00,
391,-4.560000e-01,4.000000e-04,
392,-4.640000e-01,1.200000e-03,
393,-4.640000e-01,8.000000e-04,
394,-4.640000e-01,-1.600000e-03,
395,-4.640000e-01,-1.600000e-03,
396,-4.640000e-01,-2.400000e-03,
397,-4.640000e-01,-2.000000e-03,
398,-4.640000e-01,-1.200000e-03,
399,-4.640000e-01,-1.600000e-03,
400,-4.640000e-01,8.000000e-04,
401,-4.640000e-01,1.200000e-03,
402,-4.720000e-01,8.000000e-04,
403,-4.720000e-01,8.000000e-04,
404,-4.720000e-01,1.200000e-03,
405,-4.720000e-01,1.600000e-03,
406,-4.720000e-01,-1.600000e-03,
407,-4.720000e-01,-1.200000e-03,
408,-4.720000e-01,8.000000e-04,
409,-4.720000e-01,8.000000e-04,
410,-4.800000e-01,-1.600000e-03,
411,-4.800000e-01,-1.200000e-03,
412,-4.800000e-01,4.000000e-04,
413,-4.800000e-01,4.000000e-04,
414,-4.800000e-01,8.000000e-04,
415,-4.800000e-01,1.200000e-03,
416,-4.800000e-01,4.000000e-04,
417,-4.800000e-01,0.000000e+00,
418,-4.880000e-01,-2.800000e-03,
419,-4.880000e-01,-2.800000e-03,
420,-4.880000e-01,-8.000000e-04,
421,-4.880000e-01,-8.000000e-04,
422,-4.880000e-01,-1.600000e-03,
423,-4.880000e-01,-1.200000e-03,
424,-4.880000e-01,4.000000e-04,
425,-4.880000e-01,0.000000e+00,
426,-4.880000e-01,-1.600000e-03,
427,-4.880000e-01,-1.200000e-03,
428,-4.880000e-01,4.000000e-04,
429,-4.880000e-01,4.000000e-04,
430,-4.880000e-01,-1.600000e-03,
431,-4.880000e-01,-1.200000e-03,
432,-4.960000e-01,-1.200000e-03,
433,-4.960000e-01,-1.200000e-03,
434,-4.960000e-01,1.200000e-03,
435,-4.960000e-01,8.000000e-04,
436,-4.880000e-01,-2.000000e-03,
437,-4.880000e-01,-1.600000e-03,
438,-4.960000e-01,8.000000e-04,
439,-4.960000e-01,8.000000e-04,
440,-4.960000e-01,-1.200000e-03,
441,-4.960000e-01,-1.200000e-03,
442,-4.960000e-01,-8.000000e-04,
443,-4.960000e-01,-1.200000e-03,
444,-5.040000e-01,2.400000e-03,
445,-5.040000e-01,2.400000e-03,
446,-4.960000e-01,-1.600000e-03,
447,-4.960000e-01,-1.200000e-03,
448,-4.960000e-01,4.000000e-04,
449,-4.960000e-01,0.000000e+00,
450,-4.960000e-01,-8.000000e-04,
451,-4.960000e-01,-1.200000e-03,
452,-5.040000e-01,1.600000e-03,
453,-5.040000e-01,1.600000e-03,
454,-4.960000e-01,8.000000e-04,
455,-4.960000e-01,1.200000e-03,
456,-4.960000e-01,-1.200000e-03,
457,-4.960000e-01,-1.600000e-03,
458,-4.960000e-01,-2.400000e-03,
459,-4.960000e-01,-2.000000e-03,
460,-4.960000e-01,8.000000e-04,
461,-4.960000e-01,8.000000e-04,
462,-4.960000e-01,-1.200000e-03,
463,-4.960000e-01,-1.600000e-03,
464,-4.960000e-01,8.000000e-04,
465,-4.960000e-01,1.200000e-03,
466,-4.960000e-01,0.000000e+00,
467,-4.960000e-01,0.000000e+00,
468,-5.040000e-01,-8.000000e-04,
469,-5.040000e-01,-1.200000e-03,
470,-4.960000e-01,4.000000e-04,
471,-4.960000e-01,0.000000e+00,
472,-4.960000e-01,1.600000e-03,
473,-4.960000e-01,1.200000e-03,
474,-4.960000e-01,-1.600000e-03,
475,-4.960000e-01,-1.600000e-03,
476,-4.880000e-01,1.200000e-03,
477,-4.880000e-01,1.200000e-03,
478,-4.880000e-01,0.000000e+00,
479,-4.880000e-01,-4.000000e-04,
480,-4.880000e-01,-2.800000e-03,
481,-4.880000e-01,-2.800000e-03,
482,-4.880000e-01,1.200000e-03,
483,-4.880000e-01,1.200000e-03,
484,-4.800000e-01,8.000000e-04,
485,-4.880000e-01,8.000000e-04,
486,-4.880000e-01,8.000000e-04,
487,-4.880000e-01,4.000000e-04,
488,-4.800000e-01,-2.800000e-03,
489,-4.800000e-01,-2.400000e-03,
490,-4.800000e-01,1.200000e-03,
491,-4.880000e-01,8.000000e-04,
492,-4.800000e-01,8.000000e-04,
493,-4.800000e-01,4.000000e-04,
494,-4.800000e-01,4.000000e-04,
495,-4.800000e-01,8.000000e-04,
496,-4.800000e-01,-1.200000e-03,
497,-4.800000e-01,-8.000000e-04,
498,-4.720000e-01,-1.600000e-03,
499,-4.720000e-01,-1.600000e-03,
500,-4.720000e-01,1.200000e-03,
501,-4.720000e-01,8.000000e-04,
502,-4.720000e-01,1.200000e-03,
503,-4.720000e-01,8.000000e-04,
504,-4.720000e-01,-4.000000e-04,
505,-4.720000e-01,0.000000e+00,
506,-4.640000e-01,-8.000000e-04,
507,-4.640000e-01,-8.000000e-04,
508,-4.720000e-01,-1.600000e-03,
509,-4.720000e-01,-2.000000e-03,
510,-4.640000e-01,-8.000000e-04,
511,-4.640000e-01,-1.200000e-03,
512,-4.640000e-01,0.000000e+00,
513,-4.640000e-01,4.000000e-04,
514,-4.560000e-01,8.000000e-04,
515,-4.560000e-01,8.000000e-04,
516,-4.560000e-01,1.200000e-03,
517,-4.560000e-01,8.000000e-04,
518,-4.560000e-01,-1.200000e-03,
519,-4.560000e-01,-1.600000e-03,
520,-4.560000e-01,-8.000000e-04,
521,-4.560000e-01,-4.000000e-04,
522,-4.480000e-01,1.200000e-03,
523,-4.480000e-01,8.000000e-04,
524,-4.400000e-01,1.200000e-03,
525,-4.400000e-01,1.600000e-03,
526,-4.400000e-01,-1.200000e-03,
527,-4.400000e-01,-1.200000e-03,
528,-4.480000e-01,1.200000e-03,
529,-4.480000e-01,1.200000e-03,
530,-4.400000e-01,8.000000e-04,
531,-4.400000e-01,4.000000e-04,
532,-4.320000e-01,-1.200000e-03,
533,-4.320000e-01,-8.000000e-04,
534,-4.320000e-01,8.000000e-04,
535,-4.320000e-01,8.000000e-04,
536,-4.320000e-01,0.000000e+00,
537,-4.320000e-01,4.000000e-04,
538,-4.240000e-01,-8.000000e-04,
539,-4.240000e-01,-1.200000e-03,
540,-4.240000e-01,-2.400000e-03,
541,-4.160000e-01,-2.800000e-03,
542,-4.160000e-01,8.000000e-04,
543,-4.160000e-01,1.200000e-03,
544,-4.160000e-01,-2.000000e-03,
545,-4.160000e-01,-1.600000e-03,
546,-4.160000e-01,-1.600000e-03,
547,-4.160000e-01,-2.000000e-03,
548,-4.080000e-01,4.000000e-04,
549,-4.160000e-01,4.000000e-04,
550,-4.080000e-01,1.200000e-03,
551,-4.080000e-01,1.200000e-03,
552,-4.000000e-01,8.000000e-04,
553,-4.000000e-01,8.000000e-04,
554,-4.000000e-01,1.600000e-03,
555,-4.000000e-01,1.200000e-03,
556,-4.000000e-01,1.200000e-03,
557,-4.000000e-01,1.600000e-03,
558,-3.920000e-01,4.000000e-04,
559,-3.920000e-01,8.000000e-04,
560,-3.920000e-01,0.000000e+00,
561,-3.920000e-01,4.000000e-04,
562,-3.840000e-01,1.200000e-03,
563,-3.840000e-01,8.000000e-04,
564,-3.840000e-01,4.000000e-04,
565,-3.840000e-01,4.000000e-04,
566,-3.760000e-01,-8.000000e-04,
567,-3.760000e-01,-4.000000e-04,
568,-3.680000e-01,-2.000000e-03,
569,-3.680000e-01,-2.400000e-03,
570,-3.680000e-01,8.000000e-04,
571,-3.680000e-01,4.000000e-04,
572,-3.600000e-01,8.000000e-04,
573,-3.600000e-01,8.000000e-04,
574,-3.600000e-01,-1.200000e-03,
575,-3.600000e-01,-1.600000e-03,
576,-3.520000e-01,-1.200000e-03,
577,-3.520000e-01,-1.600000e-03,
578,-3.520000e-01,-1.600000e-03,
579,-3.520000e-01,-1.200000e-03,
580,-3.440000e-01,-8.000000e-04,
581,-3.440000e-01,-1.200000e-03,
582,-3.440000e-01,-1.200000e-03,
583,-3.440000e-01,-8.000000e-04,
584,-3.360000e-01,-1.200000e-03,
585,-3.360000e-01,-1.600000e-03,
586,-3.360000e-01,4.000000e-04,
587,-3.360000e-01,4.000000e-04,
588,-3.280000e-01,-8.000000e-04,
589,-3.280000e-01,-8.000000e-04,
590,-3.200000e-01,0.000000e+00,
591,-3.200000e-01,4.000000e-04,
592,-3.200000e-01,-1.200000e-03,
593,-3.200000e-01,-1.600000e-03,
594,-3.120000e-01,-4.000000e-04,
595,-3.120000e-01,-8.000000e-04,
596,-3.040000e-01,4.000000e-04,
597,-3.040000e-01,8.000000e-04,
598,-3.040000e-01,4.000000e-04,
599,-3.040000e-01,4.000000e-04,
600,-2.960000e-01,8.000000e-04,
601,-2.960000e-01,1.200000e-03,
602,-2.880000e-01,1.600000e-03,
603,-2.880000e-01,1.200000e-03,
604,-2.960000e-01,8.000000e-04,
605,-2.960000e-01,4.000000e-04,
606,-2.800000e-01,8.000000e-04,
607,-2.800000e-01,1.200000e-03,
608,-2.800000e-01,8.000000e-04,
609,-2.800000e-01,1.200000e-03,
610,-2.720000e-01,4.000000e-04,
611,-2.720000e-01,4.000000e-04,
612,-2.640000e-01,4.000000e-04,
613,-2.720000e-01,4.000000e-04,
614,-2.640000e-01,0.000000e+00,
615,-2.640000e-01,-4.000000e-04,
616,-2.560000e-01,-4.000000e-04,
617,-2.560000e-01,-8.000000e-04,
618,-2.560000e-01,-8.000000e-04,
619,-2.560000e-01,-1.200000e-03,
620,-2.400000e-01,-2.800000e-03,
621,-2.400000e-01,-2.800000e-03,
622,-2.400000e-01,-8.000000e-04,
623,-2.400000e-01,-1.200000e-03,
