Esp1/Data/Newfile15.csv

X,CH1,Start,Increment,
Sequence,Volt,-1.400000e-03,2.000000e-06,
0,-2.599200e-01,
1,-2.599200e-01,
2,-2.599200e-01,
3,-2.599200e-01,
4,-2.690400e-01,
5,-2.736000e-01,
6,-2.781600e-01,
7,-2.827200e-01,
8,-2.872800e-01,
9,-2.872800e-01,
10,-2.918400e-01,
11,-2.964000e-01,
12,-3.009600e-01,
13,-3.055200e-01,
14,-3.100800e-01,
15,-3.100800e-01,
16,-3.146400e-01,
17,-3.192000e-01,
18,-3.237600e-01,
19,-3.283200e-01,
20,-3.283200e-01,
21,-3.328800e-01,
22,-3.374400e-01,
23,-3.420000e-01,
24,-3.420000e-01,
25,-3.465600e-01,
26,-3.511200e-01,
27,-3.511200e-01,
28,-3.556800e-01,
29,-3.556800e-01,
30,-3.602400e-01,
31,-3.648000e-01,
32,-3.648000e-01,
33,-3.693600e-01,
34,-3.739200e-01,
35,-3.739200e-01,
36,-3.784800e-01,
37,-3.784800e-01,
38,-3.830400e-01,
39,-3.876000e-01,
40,-3.876000e-01,
41,-3.921600e-01,
42,-3.921600e-01,
43,-3.921600e-01,
44,-3.967200e-01,
45,-3.967200e-01,
46,-4.012800e-01,
47,-4.012800e-01,
48,-4.012800e-01,
49,-4.058400e-01,
50,-4.058400e-01,
51,-4.104000e-01,
52,-4.104000e-01,
53,-4.149600e-01,
54,-4.149600e-01,
55,-4.104000e-01,
56,-4.149600e-01,
57,-4.195200e-01,
58,-4.195200e-01,
59,-4.195200e-01,
60,-4.195200e-01,
61,-4.195200e-01,
62,-4.195200e-01,
63,-4.240800e-01,
64,-4.195200e-01,
65,-4.240800e-01,
66,-4.240800e-01,
67,-4.240800e-01,
68,-4.240800e-01,
69,-4.286400e-01,
70,-4.240800e-01,
71,-4.286400e-01,
72,-4.286400e-01,
73,-4.240800e-01,
74,-4.286400e-01,
75,-4.240800e-01,
76,-4.240800e-01,
77,-4.240800e-01,
78,-4.286400e-01,
79,-4.240800e-01,
80,-4.240800e-01,
81,-4.286400e-01,
82,-4.240800e-01,
83,-4.240800e-01,
84,-4.240800e-01,
85,-4.240800e-01,
86,-4.240800e-01,
87,-4.195200e-01,
88,-4.195200e-01,
89,-4.240800e-01,
90,-4.195200e-01,
91,-4.149600e-01,
92,-4.195200e-01,
93,-4.149600e-01,
94,-4.149600e-01,
95,-4.104000e-01,
96,-4.104000e-01,
97,-4.149600e-01,
98,-4.104000e-01,
99,-4.058400e-01,
100,-4.058400e-01,
101,-4.058400e-01,
102,-4.058400e-01,
103,-4.012800e-01,
104,-4.012800e-01,
105,-3.967200e-01,
106,-3.967200e-01,
107,-3.921600e-01,
108,-3.921600e-01,
109,-3.921600e-01,
110,-3.876000e-01,
111,-3.830400e-01,
112,-3.830400e-01,
113,-3.784800e-01,
114,-3.784800e-01,
115,-3.739200e-01,
116,-3.739200e-01,
117,-3.693600e-01,
118,-3.693600e-01,
119,-3.648000e-01,
120,-3.602400e-01,
121,-3.556800e-01,
122,-3.556800e-01,
123,-3.511200e-01,
124,-3.511200e-01,
125,-3.465600e-01,
126,-3.420000e-01,
127,-3.374400e-01,
128,-3.374400e-01,
129,-3.328800e-01,
130,-3.283200e-01,
131,-3.283200e-01,
132,-3.237600e-01,
133,-3.192000e-01,
134,-3.146400e-01,
135,-3.100800e-01,
136,-3.055200e-01,
137,-3.055200e-01,
138,-3.009600e-01,
139,-2.964000e-01,
140,-2.918400e-01,
141,-2.872800e-01,
142,-2.827200e-01,
143,-2.827200e-01,
144,-2.781600e-01,
145,-2.736000e-01,
146,-2.690400e-01,
147,-2.644800e-01,
148,-2.599200e-01,
149,-2.553600e-01,
150,-2.508000e-01,
151,-2.462400e-01,
152,-2.416800e-01,
153,-2.371200e-01,
154,-2.325600e-01,
155,-2.280000e-01,
156,-2.234400e-01,
157,-2.188800e-01,
158,-2.143200e-01,
159,-2.097600e-01,
160,-2.052000e-01,
161,-2.006400e-01,
162,-1.960800e-01,
163,-1.915200e-01,
164,-1.869600e-01,
165,-1.824000e-01,
166,-1.732800e-01,
167,-1.732800e-01,
168,-1.641600e-01,
169,-1.596000e-01,
170,-1.550400e-01,
171,-1.550400e-01,
172,-1.459200e-01,
173,-1.413600e-01,
174,-1.368000e-01,
175,-1.322400e-01,
176,-1.231200e-01,
177,-1.231200e-01,
178,-1.140000e-01,
179,-1.094400e-01,
180,-1.048800e-01,
181,-1.003200e-01,
182,-9.119999e-02,
183,-9.119999e-02,
184,-8.208000e-02,
185,-7.752000e-02,
186,-7.296000e-02,
187,-6.840000e-02,
188,-5.928000e-02,
189,-5.928000e-02,
190,-5.016000e-02,
191,-4.560000e-02,
192,-4.104000e-02,
193,-3.648000e-02,
194,-2.736000e-02,
195,-2.736000e-02,
196,-1.824000e-02,
197,-1.368000e-02,
198,-4.560000e-03,
199,-4.560000e-03,
200,4.560000e-03,
201,9.120000e-03,
202,1.368000e-02,
203,1.824000e-02,
204,2.736000e-02,
205,2.736000e-02,
206,3.648000e-02,
207,4.104000e-02,
208,5.016000e-02,
209,5.016000e-02,
210,5.928000e-02,
211,6.383999e-02,
212,6.840000e-02,
213,7.296000e-02,
214,8.208000e-02,
215,8.208000e-02,
216,9.119999e-02,
217,9.119999e-02,
218,1.003200e-01,
219,1.048800e-01,
220,1.094400e-01,
221,1.140000e-01,
222,1.231200e-01,
223,1.231200e-01,
224,1.322400e-01,
225,1.368000e-01,
226,1.413600e-01,
227,1.413600e-01,
228,1.504800e-01,
229,1.550400e-01,
230,1.596000e-01,
231,1.641600e-01,
232,1.732800e-01,
233,1.732800e-01,
234,1.824000e-01,
235,1.869600e-01,
236,1.915200e-01,
237,1.960800e-01,
238,2.006400e-01,
239,2.052000e-01,
240,2.097600e-01,
241,2.143200e-01,
242,2.188800e-01,
243,2.234400e-01,
244,2.280000e-01,
245,2.325600e-01,
246,2.371200e-01,
247,2.416800e-01,
248,2.462400e-01,
249,2.508000e-01,
250,2.553600e-01,
251,2.599200e-01,
252,2.644800e-01,
253,2.690400e-01,
254,2.736000e-01,
255,2.781600e-01,
256,2.827200e-01,
257,2.827200e-01,
258,2.872800e-01,
259,2.918400e-01,
260,2.964000e-01,
261,3.009600e-01,
262,3.055200e-01,
263,3.055200e-01,
264,3.100800e-01,
265,3.146400e-01,
266,3.192000e-01,
267,3.237600e-01,
268,3.283200e-01,
269,3.283200e-01,
270,3.328800e-01,
271,3.374400e-01,
272,3.420000e-01,
273,3.465600e-01,
274,3.465600e-01,
275,3.511200e-01,
276,3.556800e-01,
277,3.556800e-01,
278,3.602400e-01,
279,3.648000e-01,
280,3.648000e-01,
281,3.648000e-01,
282,3.693600e-01,
283,3.739200e-01,
284,3.739200e-01,
285,3.784800e-01,
286,3.830400e-01,
287,3.830400e-01,
288,3.876000e-01,
289,3.921600e-01,
290,3.921600e-01,
291,3.967200e-01,
292,3.967200e-01,
293,4.012800e-01,
294,4.012800e-01,
295,4.012800e-01,
296,4.058400e-01,
297,4.058400e-01,
298,4.058400e-01,
299,4.104000e-01,
300,4.104000e-01,
301,4.149600e-01,
302,4.149600e-01,
303,4.149600e-01,
304,4.149600e-01,
305,4.195200e-01,
306,4.195200e-01,
307,4.240800e-01,
308,4.195200e-01,
309,4.240800e-01,
310,4.240800e-01,
311,4.286400e-01,
312,4.240800e-01,
313,4.286400e-01,
314,4.240800e-01,
315,4.286400e-01,
316,4.286400e-01,
317,4.286400e-01,
318,4.286400e-01,
319,4.332000e-01,
320,4.332000e-01,
321,4.286400e-01,
322,4.332000e-01,
323,4.286400e-01,
324,4.332000e-01,
325,4.286400e-01,
326,4.332000e-01,
327,4.286400e-01,
328,4.332000e-01,
329,4.286400e-01,
330,4.332000e-01,
331,4.286400e-01,
332,4.286400e-01,
333,4.332000e-01,
334,4.286400e-01,
335,4.240800e-01,
336,4.286400e-01,
337,4.240800e-01,
338,4.240800e-01,
339,4.286400e-01,
340,4.240800e-01,
341,4.240800e-01,
342,4.240800e-01,
343,4.195200e-01,
344,4.195200e-01,
345,4.149600e-01,
346,4.195200e-01,
347,4.149600e-01,
348,4.149600e-01,
349,4.149600e-01,
350,4.104000e-01,
351,4.058400e-01,
352,4.104000e-01,
353,4.058400e-01,
354,4.058400e-01,
355,4.012800e-01,
356,4.012800e-01,
357,4.012800e-01,
358,3.967200e-01,
359,3.921600e-01,
360,3.921600e-01,
361,3.876000e-01,
362,3.876000e-01,
363,3.830400e-01,
364,3.830400e-01,
365,3.784800e-01,
366,3.784800e-01,
367,3.739200e-01,
368,3.693600e-01,
369,3.693600e-01,
370,3.648000e-01,
371,3.602400e-01,
372,3.602400e-01,
373,3.556800e-01,
374,3.556800e-01,
375,3.511200e-01,
376,3.465600e-01,
377,3.420000e-01,
378,3.420000e-01,
379,3.374400e-01,
380,3.328800e-01,
381,3.328800e-01,
382,3.237600e-01,
383,3.237600e-01,
384,3.192000e-01,
385,3.146400e-01,
386,3.100800e-01,
387,3.100800e-01,
388,3.055200e-01,
389,3.009600e-01,
390,2.964000e-01,
391,2.918400e-01,
392,2.872800e-01,
393,2.827200e-01,
394,2.781600e-01,
395,2.781600e-01,
396,2.690400e-01,
397,2.690400e-01,
398,2.644800e-01,
399,2.599200e-01,
400,2.553600e-01,
401,2.508000e-01,
402,2.462400e-01,
403,2.416800e-01,
404,2.371200e-01,
405,2.371200e-01,
406,2.280000e-01,
407,2.234400e-01,
408,2.188800e-01,
409,2.143200e-01,
410,2.097600e-01,
411,2.097600e-01,
412,2.006400e-01,
413,1.960800e-01,
414,1.869600e-01,
415,1.869600e-01,
416,1.778400e-01,
417,1.778400e-01,
418,1.687200e-01,
419,1.687200e-01,
420,1.596000e-01,
421,1.596000e-01,
422,1.504800e-01,
423,1.459200e-01,
424,1.368000e-01,
425,1.368000e-01,
426,1.276800e-01,
427,1.276800e-01,
428,1.185600e-01,
429,1.140000e-01,
430,1.094400e-01,
431,1.048800e-01,
432,9.576000e-02,
433,9.576000e-02,
434,8.663999e-02,
435,8.208000e-02,
436,7.752000e-02,
437,7.296000e-02,
438,6.840000e-02,
439,6.383999e-02,
440,5.472000e-02,
441,5.016000e-02,
442,4.560000e-02,
443,4.104000e-02,
444,3.648000e-02,
445,3.192000e-02,
446,2.280000e-02,
447,1.824000e-02,
448,1.368000e-02,
449,9.120000e-03,
450,0.000000e+00,
451,0.000000e+00,
452,-9.120000e-03,
453,-1.368000e-02,
454,-2.280000e-02,
455,-2.280000e-02,
456,-3.192000e-02,
457,-3.648000e-02,
458,-4.104000e-02,
459,-4.560000e-02,
460,-5.472000e-02,
461,-5.472000e-02,
462,-6.383999e-02,
463,-6.840000e-02,
464,-7.296000e-02,
465,-7.752000e-02,
466,-8.663999e-02,
467,-8.663999e-02,
468,-9.576000e-02,
469,-1.003200e-01,
470,-1.048800e-01,
471,-1.094400e-01,
472,-1.185600e-01,
473,-1.185600e-01,
474,-1.276800e-01,
475,-1.322400e-01,
476,-1.368000e-01,
477,-1.413600e-01,
478,-1.459200e-01,
479,-1.504800e-01,
480,-1.596000e-01,
481,-1.596000e-01,
482,-1.687200e-01,
483,-1.732800e-01,
484,-1.778400e-01,
485,-1.824000e-01,
486,-1.869600e-01,
487,-1.915200e-01,
488,-1.960800e-01,
489,-2.006400e-01,
490,-2.052000e-01,
491,-2.097600e-01,
492,-2.143200e-01,
493,-2.188800e-01,
494,-2.280000e-01,
495,-2.280000e-01,
496,-2.325600e-01,
497,-2.371200e-01,
498,-2.416800e-01,
499,-2.462400e-01,
500,-2.508000e-01,
501,-2.553600e-01,
502,-2.599200e-01,
503,-2.644800e-01,
504,-2.690400e-01,
505,-2.736000e-01,
506,-2.781600e-01,
507,-2.781600e-01,
508,-2.872800e-01,
509,-2.872800e-01,
510,-2.918400e-01,
511,-2.964000e-01,
512,-3.009600e-01,
513,-3.055200e-01,
514,-3.100800e-01,
515,-3.100800e-01,
516,-3.146400e-01,
517,-3.192000e-01,
518,-3.237600e-01,
519,-3.283200e-01,
520,-3.283200e-01,
521,-3.328800e-01,
522,-3.374400e-01,
523,-3.374400e-01,
524,-3.420000e-01,
525,-3.465600e-01,
526,-3.511200e-01,
527,-3.511200e-01,
528,-3.556800e-01,
529,-3.556800e-01,
530,-3.602400e-01,
531,-3.648000e-01,
532,-3.648000e-01,
533,-3.693600e-01,
534,-3.739200e-01,
535,-3.739200e-01,
536,-3.784800e-01,
537,-3.830400e-01,
538,-3.830400e-01,
539,-3.876000e-01,
540,-3.876000e-01,
541,-3.921600e-01,
542,-3.921600e-01,
543,-3.921600e-01,
544,-3.967200e-01,
545,-3.967200e-01,
546,-4.012800e-01,
547,-4.012800e-01,
548,-4.012800e-01,
549,-4.058400e-01,
550,-4.058400e-01,
551,-4.104000e-01,
552,-4.104000e-01,
553,-4.104000e-01,
554,-4.149600e-01,
555,-4.104000e-01,
556,-4.149600e-01,
557,-4.149600e-01,
558,-4.149600e-01,
559,-4.195200e-01,
560,-4.195200e-01,
561,-4.195200e-01,
562,-4.195200e-01,
563,-4.240800e-01,
564,-4.195200e-01,
565,-4.240800e-01,
566,-4.286400e-01,
567,-4.240800e-01,
568,-4.240800e-01,
569,-4.286400e-01,
570,-4.240800e-01,
571,-4.240800e-01,
572,-4.286400e-01,
573,-4.240800e-01,
574,-4.286400e-01,
575,-4.240800e-01,
576,-4.286400e-01,
577,-4.240800e-01,
578,-4.286400e-01,
579,-4.240800e-01,
580,-4.286400e-01,
581,-4.240800e-01,
582,-4.240800e-01,
583,-4.286400e-01,
584,-4.240800e-01,
585,-4.240800e-01,
586,-4.240800e-01,
587,-4.195200e-01,
588,-4.240800e-01,
589,-4.195200e-01,
590,-4.195200e-01,
591,-4.149600e-01,
592,-4.195200e-01,
593,-4.149600e-01,
594,-4.149600e-01,
595,-4.104000e-01,
596,-4.149600e-01,
597,-4.104000e-01,
598,-4.104000e-01,
599,-4.058400e-01,
600,-4.058400e-01,
601,-4.058400e-01,
602,-4.058400e-01,
603,-4.012800e-01,
604,-4.012800e-01,
605,-3.967200e-01,
606,-3.967200e-01,
607,-3.921600e-01,
608,-3.921600e-01,
609,-3.876000e-01,
610,-3.876000e-01,
611,-3.830400e-01,
612,-3.830400e-01,
613,-3.784800e-01,
614,-3.784800e-01,
615,-3.739200e-01,
616,-3.739200e-01,
617,-3.693600e-01,
618,-3.648000e-01,
619,-3.693600e-01,
620,-3.602400e-01,
621,-3.602400e-01,
622,-3.556800e-01,
623,-3.511200e-01,
624,-3.511200e-01,
625,-3.465600e-01,
626,-3.420000e-01,
627,-3.420000e-01,
628,-3.374400e-01,
629,-3.328800e-01,
630,-3.283200e-01,
631,-3.237600e-01,
632,-3.237600e-01,
633,-3.192000e-01,
634,-3.146400e-01,
635,-3.100800e-01,
636,-3.055200e-01,
637,-3.055200e-01,
638,-3.009600e-01,
639,-2.964000e-01,
640,-2.918400e-01,
641,-2.918400e-01,
642,-2.827200e-01,
643,-2.827200e-01,
644,-2.781600e-01,
645,-2.736000e-01,
646,-2.690400e-01,
647,-2.644800e-01,
648,-2.599200e-01,
649,-2.553600e-01,
650,-2.508000e-01,
651,-2.462400e-01,
652,-2.416800e-01,
653,-2.416800e-01,
654,-2.325600e-01,
655,-2.280000e-01,
656,-2.234400e-01,
657,-2.188800e-01,
658,-2.143200e-01,
659,-2.097600e-01,
660,-2.052000e-01,
661,-2.006400e-01,
662,-1.960800e-01,
663,-1.915200e-01,
664,-1.869600e-01,
665,-1.824000e-01,
666,-1.732800e-01,
667,-1.732800e-01,
668,-1.641600e-01,
669,-1.641600e-01,
670,-1.550400e-01,
671,-1.504800e-01,
672,-1.459200e-01,
673,-1.413600e-01,
674,-1.368000e-01,
675,-1.322400e-01,
676,-1.231200e-01,
677,-1.231200e-01,
678,-1.140000e-01,
679,-1.094400e-01,
680,-1.048800e-01,
681,-1.003200e-01,
682,-9.119999e-02,
683,-9.119999e-02,
684,-8.208000e-02,
685,-8.208000e-02,
686,-7.296000e-02,
687,-6.840000e-02,
688,-5.928000e-02,
689,-5.928000e-02,
690,-5.016000e-02,
691,-4.560000e-02,
692,-4.104000e-02,
693,-3.648000e-02,
694,-2.736000e-02,
695,-2.736000e-02,
696,-1.824000e-02,
697,-1.368000e-02,
698,-9.120000e-03,
699,-4.560000e-03,
700,4.560000e-03,
701,4.560000e-03,
702,1.368000e-02,
703,1.824000e-02,
704,2.736000e-02,
705,2.736000e-02,
706,3.648000e-02,
707,4.104000e-02,
708,4.560000e-02,
709,5.016000e-02,
710,5.928000e-02,
711,6.383999e-02,
712,6.840000e-02,
713,7.296000e-02,
714,8.208000e-02,
715,8.208000e-02,
716,9.119999e-02,
717,9.119999e-02,
718,1.003200e-01,
719,1.048800e-01,
720,1.094400e-01,
721,1.140000e-01,
722,1.231200e-01,
723,1.231200e-01,
724,1.322400e-01,
725,1.322400e-01,
726,1.413600e-01,
727,1.459200e-01,
728,1.504800e-01,
729,1.550400e-01,
730,1.596000e-01,
731,1.641600e-01,
732,1.732800e-01,
733,1.778400e-01,
734,1.824000e-01,
735,1.869600e-01,
736,1.915200e-01,
737,1.960800e-01,
738,2.006400e-01,
739,2.052000e-01,
740,2.097600e-01,
741,2.143200e-01,
742,2.188800e-01,
743,2.234400e-01,
744,2.280000e-01,
745,2.325600e-01,
746,2.371200e-01,
747,2.416800e-01,
748,2.462400e-01,
749,2.508000e-01,
750,2.553600e-01,
751,2.599200e-01,
752,2.644800e-01,
753,2.690400e-01,
754,2.736000e-01,
755,2.736000e-01,
756,2.827200e-01,
757,2.827200e-01,
758,2.872800e-01,
759,2.918400e-01,
760,2.964000e-01,
761,3.009600e-01,
762,3.055200e-01,
763,3.055200e-01,
764,3.100800e-01,
765,3.146400e-01,
766,3.192000e-01,
767,3.192000e-01,
768,3.283200e-01,
769,3.283200e-01,
770,3.328800e-01,
771,3.374400e-01,
772,3.420000e-01,
773,3.465600e-01,
774,3.465600e-01,
775,3.511200e-01,
776,3.556800e-01,
777,3.556800e-01,
778,3.602400e-01,
779,3.602400e-01,
780,3.648000e-01,
781,3.693600e-01,
782,3.693600e-01,
783,3.739200e-01,
784,3.739200e-01,
785,3.784800e-01,
786,3.830400e-01,
787,3.830400e-01,
788,3.876000e-01,
789,3.921600e-01,
790,3.921600e-01,
791,3.967200e-01,
792,3.967200e-01,
793,3.967200e-01,
794,4.012800e-01,
795,4.058400e-01,
796,4.058400e-01,
797,4.012800e-01,
798,4.058400e-01,
799,4.104000e-01,
800,4.104000e-01,
801,4.149600e-01,
802,4.149600e-01,
803,4.149600e-01,
804,4.149600e-01,
805,4.195200e-01,
806,4.195200e-01,
807,4.240800e-01,
808,4.195200e-01,
809,4.240800e-01,
810,4.240800e-01,
811,4.286400e-01,
812,4.286400e-01,
813,4.240800e-01,
814,4.240800e-01,
815,4.286400e-01,
816,4.286400e-01,
817,4.286400e-01,
818,4.286400e-01,
819,4.332000e-01,
820,4.286400e-01,
821,4.332000e-01,
822,4.286400e-01,
823,4.332000e-01,
824,4.286400e-01,
825,4.332000e-01,
826,4.332000e-01,
827,4.286400e-01,
828,4.286400e-01,
829,4.332000e-01,
830,4.332000e-01,
831,4.286400e-01,
832,4.286400e-01,
833,4.286400e-01,
834,4.286400e-01,
835,4.240800e-01,
836,4.286400e-01,
837,4.240800e-01,
838,4.286400e-01,
839,4.240800e-01,
840,4.240800e-01,
841,4.240800e-01,
842,4.240800e-01,
843,4.195200e-01,
844,4.195200e-01,
845,4.149600e-01,
846,4.149600e-01,
847,4.195200e-01,
848,4.149600e-01,
849,4.104000e-01,
850,4.104000e-01,
851,4.104000e-01,
852,4.104000e-01,
853,4.058400e-01,
854,4.058400e-01,
855,4.012800e-01,
856,4.012800e-01,
857,3.967200e-01,
858,3.967200e-01,
859,3.921600e-01,
860,3.921600e-01,
861,3.876000e-01,
862,3.876000e-01,
863,3.830400e-01,
864,3.830400e-01,
865,3.784800e-01,
866,3.784800e-01,
867,3.739200e-01,
868,3.693600e-01,
869,3.693600e-01,
870,3.648000e-01,
871,3.602400e-01,
872,3.602400e-01,
873,3.556800e-01,
874,3.556800e-01,
875,3.511200e-01,
876,3.465600e-01,
877,3.420000e-01,
878,3.420000e-01,
879,3.374400e-01,
880,3.328800e-01,
881,3.283200e-01,
882,3.237600e-01,
883,3.283200e-01,
884,3.192000e-01,
885,3.146400e-01,
886,3.100800e-01,
887,3.100800e-01,
888,3.055200e-01,
889,3.009600e-01,
890,2.964000e-01,
891,2.918400e-01,
892,2.872800e-01,
893,2.827200e-01,
894,2.781600e-01,
895,2.736000e-01,
896,2.690400e-01,
897,2.690400e-01,
898,2.644800e-01,
899,2.599200e-01,
900,2.553600e-01,
901,2.508000e-01,
902,2.462400e-01,
903,2.416800e-01,
904,2.371200e-01,
905,2.325600e-01,
906,2.280000e-01,
907,2.280000e-01,
908,2.188800e-01,
909,2.143200e-01,
910,2.097600e-01,
911,2.052000e-01,
912,2.006400e-01,
913,1.960800e-01,
914,1.869600e-01,
915,1.869600e-01,
916,1.778400e-01,
917,1.732800e-01,
918,1.687200e-01,
919,1.687200e-01,
920,1.596000e-01,
921,1.550400e-01,
922,1.504800e-01,
923,1.459200e-01,
924,1.368000e-01,
925,1.368000e-01,
926,1.276800e-01,
927,1.276800e-01,
928,1.185600e-01,
929,1.140000e-01,
930,1.094400e-01,
931,1.048800e-01,
932,9.576000e-02,
933,9.576000e-02,
934,8.663999e-02,
935,8.663999e-02,
936,7.752000e-02,
937,7.296000e-02,
938,6.840000e-02,
939,6.383999e-02,
940,5.472000e-02,
941,5.472000e-02,
942,4.560000e-02,
943,4.104000e-02,
944,3.192000e-02,
945,3.192000e-02,
946,2.280000e-02,
947,2.280000e-02,
948,1.368000e-02,
949,9.120000e-03,
950,0.000000e+00,
951,-4.560000e-03,
952,-9.120000e-03,
953,-1.368000e-02,
954,-2.280000e-02,
955,-2.280000e-02,
956,-3.192000e-02,
957,-3.648000e-02,
958,-4.104000e-02,
959,-4.560000e-02,
960,-5.472000e-02,
961,-5.472000e-02,
962,-6.383999e-02,
963,-6.840000e-02,
964,-7.296000e-02,
965,-7.752000e-02,
966,-8.663999e-02,
967,-8.663999e-02,
968,-9.576000e-02,
969,-1.003200e-01,
970,-1.048800e-01,
971,-1.094400e-01,
972,-1.185600e-01,
973,-1.185600e-01,
974,-1.276800e-01,
975,-1.276800e-01,
976,-1.368000e-01,
977,-1.413600e-01,
978,-1.459200e-01,
979,-1.504800e-01,
980,-1.596000e-01,
981,-1.596000e-01,
982,-1.687200e-01,
983,-1.687200e-01,
984,-1.778400e-01,
985,-1.778400e-01,
986,-1.869600e-01,
987,-1.915200e-01,
988,-1.960800e-01,
989,-2.006400e-01,
990,-2.052000e-01,
991,-2.097600e-01,
992,-2.143200e-01,
993,-2.188800e-01,
994,-2.234400e-01,
995,-2.280000e-01,
996,-2.325600e-01,
997,-2.371200e-01,
998,-2.416800e-01,
999,-2.462400e-01,
1000,-2.508000e-01,
1001,-2.553600e-01,
1002,-2.599200e-01,
1003,-2.644800e-01,
1004,-2.690400e-01,
1005,-2.736000e-01,
1006,-2.781600e-01,
1007,-2.781600e-01,
1008,-2.872800e-01,
1009,-2.872800e-01,
1010,-2.918400e-01,
1011,-2.964000e-01,
1012,-3.009600e-01,
1013,-3.055200e-01,
1014,-3.100800e-01,
1015,-3.100800e-01,
1016,-3.146400e-01,
1017,-3.192000e-01,
1018,-3.237600e-01,
1019,-3.283200e-01,
1020,-3.283200e-01,
1021,-3.328800e-01,
1022,-3.374400e-01,
1023,-3.420000e-01,
1024,-3.420000e-01,
1025,-3.465600e-01,
1026,-3.511200e-01,
1027,-3.556800e-01,
1028,-3.556800e-01,
1029,-3.602400e-01,
1030,-3.602400e-01,
1031,-3.648000e-01,
1032,-3.693600e-01,
1033,-3.693600e-01,
1034,-3.739200e-01,
1035,-3.739200e-01,
1036,-3.784800e-01,
1037,-3.830400e-01,
1038,-3.830400e-01,
1039,-3.876000e-01,
1040,-3.876000e-01,
1041,-3.876000e-01,
1042,-3.921600e-01,
1043,-3.967200e-01,
1044,-3.967200e-01,
1045,-3.967200e-01,
1046,-4.012800e-01,
1047,-4.012800e-01,
1048,-4.012800e-01,
1049,-4.058400e-01,
1050,-4.058400e-01,
1051,-4.104000e-01,
1052,-4.104000e-01,
1053,-4.104000e-01,
1054,-4.104000e-01,
1055,-4.149600e-01,
1056,-4.149600e-01,
1057,-4.149600e-01,
1058,-4.149600e-01,
1059,-4.195200e-01,
1060,-4.195200e-01,
1061,-4.240800e-01,
1062,-4.195200e-01,
1063,-4.240800e-01,
1064,-4.240800e-01,
1065,-4.195200e-01,
1066,-4.240800e-01,
1067,-4.240800e-01,
1068,-4.240800e-01,
1069,-4.286400e-01,
1070,-4.240800e-01,
1071,-4.286400e-01,
1072,-4.240800e-01,
1073,-4.286400e-01,
1074,-4.286400e-01,
1075,-4.240800e-01,
1076,-4.240800e-01,
